 # Detector n:            4   phDG2     
 # N. of energy intervals         120
  9.9999997E-06  1.1220184E-05   40.98646       68.62242    
  1.1220184E-05  1.2589254E-05   178.0637       48.02185    
  1.2589254E-05  1.4125375E-05   309.4896       36.39425    
  1.4125375E-05  1.5848931E-05   253.3594       38.58679    
  1.5848931E-05  1.7782793E-05   414.3510       30.63390    
  1.7782793E-05  1.9952624E-05   347.8925       27.52278    
  1.9952624E-05  2.2387210E-05   281.9103       25.37843    
  2.2387210E-05  2.5118865E-05   662.6323       17.94752    
  2.5118865E-05  2.8183831E-05   592.4529       17.26248    
  2.8183831E-05  3.1622778E-05   778.9753       15.40275    
  3.1622778E-05  3.5481338E-05   991.2774       12.10949    
  3.5481338E-05  3.9810719E-05   1748.202       8.793947    
  3.9810719E-05  4.4668363E-05   2614.284       6.637860    
  4.4668363E-05  5.0118728E-05   4066.365       5.088331    
  5.0118728E-05  5.6234134E-05   5909.810       4.014072    
  5.6234134E-05  6.3095737E-05   8220.269       3.265654    
  6.3095737E-05  7.0794587E-05   11112.13       2.589726    
  7.0794587E-05  7.9432837E-05   13137.49       2.290156    
  7.9432837E-05  8.9125104E-05   15245.68       1.966847    
  8.9125104E-05  1.0000000E-04   17104.56       1.828080    
  1.0000000E-04  1.1220186E-04   19009.71       1.611384    
  1.1220186E-04  1.2589256E-04   19512.04       1.520116    
  1.2589256E-04  1.4125377E-04   19350.28       1.410917    
  1.4125377E-04  1.5848935E-04   18611.89       1.391846    
  1.5848935E-04  1.7782798E-04   17883.53       1.334535    
  1.7782798E-04  1.9952627E-04   16419.00       1.329757    
  1.9952627E-04  2.2387214E-04   14212.05       1.315146    
  2.2387214E-04  2.5118867E-04   12346.22       1.355342    
  2.5118867E-04  2.8183835E-04   10065.58       1.425521    
  2.8183835E-04  3.1622782E-04   8598.604       1.440967    
  3.1622782E-04  3.5481344E-04   7491.522       1.422568    
  3.5481344E-04  3.9810725E-04   6533.831       1.448514    
  3.9810725E-04  4.4668367E-04   5886.481       1.455601    
  4.4668367E-04  5.0118734E-04   10041.32       1.033529    
  5.0118734E-04  5.6234142E-04   6634.992       1.253081    
  5.6234142E-04  6.3095748E-04   2283.572       1.996347    
  6.3095748E-04  7.0794590E-04   1970.132       1.968500    
  7.0794590E-04  7.9432846E-04   1930.083       1.912747    
  7.9432846E-04  8.9125114E-04   2140.690       1.762947    
  8.9125114E-04  1.0000003E-03   1928.926       1.681981    
  1.0000003E-03  1.1220188E-03   1173.409       2.080816    
  1.1220188E-03  1.2589258E-03   1094.776       2.052451    
  1.2589258E-03  1.4125380E-03   1099.156       1.903258    
  1.4125380E-03  1.5848936E-03   883.5717       2.007692    
  1.5848936E-03  1.7782800E-03   738.8224       2.062674    
  1.7782800E-03  1.9952629E-03   714.2806       2.009997    
  1.9952629E-03  2.2387218E-03   641.8464       1.992944    
  2.2387218E-03  2.5118871E-03   537.9967       2.037991    
  2.5118871E-03  2.8183837E-03   411.9023       2.230922    
  2.8183837E-03  3.1622786E-03   380.2169       2.209472    
  3.1622786E-03  3.5481353E-03   315.2760       2.233347    
  3.5481353E-03  3.9810729E-03   317.1944       2.123185    
  3.9810729E-03  4.4668377E-03   255.9737       2.214911    
  4.4668377E-03  5.0118743E-03   226.7613       2.227024    
  5.0118743E-03  5.6234146E-03   172.7979       2.368691    
  5.6234146E-03  6.3095763E-03   190.3318       2.175271    
  6.3095763E-03  7.0794607E-03   136.9188       2.386902    
  7.0794607E-03  7.9432856E-03   269.4897       1.638998    
  7.9432856E-03  8.9125130E-03   60.56467       3.260047    
  8.9125130E-03  1.0000004E-02   40.97396       3.718352    
  1.0000004E-02  1.1220189E-02   4.843777       10.18780    
  1.1220189E-02  1.2589260E-02   2.911132       11.75040    
  1.2589260E-02  1.4125382E-02   1.944329       13.76128    
  1.4125382E-02  1.5848938E-02   1.771273       13.67616    
  1.5848938E-02  1.7782802E-02  0.9425382       18.26225    
  1.7782802E-02  1.9952632E-02  0.8238581       16.93798    
  1.9952632E-02  2.2387221E-02  0.6445329       24.26766    
  2.2387221E-02  2.5118876E-02  0.5690878       20.19851    
  2.5118876E-02  2.8183842E-02  0.2759777       27.07848    
  2.8183842E-02  3.1622794E-02  0.2461388       26.35488    
  3.1622794E-02  3.5481352E-02  0.1693745       28.07254    
  3.5481352E-02  3.9810736E-02  0.1743347       27.89271    
  3.9810736E-02  4.4668384E-02  0.1714435       26.27582    
  4.4668384E-02  5.0118748E-02  0.1281380       28.76151    
  5.0118748E-02  5.6234159E-02  0.1401353       27.10891    
  5.6234159E-02  6.3095763E-02  5.4575495E-02   44.18534    
  6.3095763E-02  7.0794620E-02  5.0226595E-02   42.34576    
  7.0794620E-02  7.9432867E-02  3.1802483E-02   52.33101    
  7.9432867E-02  8.9125134E-02  4.1478094E-02   39.58857    
  8.9125134E-02  0.1000001      2.0620018E-02   48.48673    
  0.1000001      0.1122019      4.1489508E-02   33.88330    
  0.1122019      0.1258926      4.6381589E-02   31.19649    
  0.1258926      0.1412538      2.2009354E-02   42.24062    
  0.1412538      0.1584894      6.1170217E-03   63.02086    
  0.1584894      0.1778280      2.3266796E-03   74.59600    
  0.1778280      0.1995264      1.3378647E-03   96.72620    
  0.1995264      0.2238722      5.6075933E-03   68.89636    
  0.2238722      0.2511888      6.9686612E-03   56.85402    
  0.2511888      0.2818385      1.6984257E-03   68.57478    
  0.2818385      0.3162280      3.5642495E-03   69.28762    
  0.3162280      0.3548136       0.000000       0.000000    
  0.3548136      0.3981074      5.1583134E-04   96.72620    
  0.3981074      0.4466839       0.000000       0.000000    
  0.4466839      0.5011876       0.000000       0.000000    
  0.5011876      0.5623417       0.000000       0.000000    
  0.5623417      0.6309578       0.000000       0.000000    
  0.6309578      0.7079462       0.000000       0.000000    
  0.7079462      0.7943288       0.000000       0.000000    
  0.7943288      0.8912516       0.000000       0.000000    
  0.8912516       1.000001       0.000000       0.000000    
   1.000001       1.122019       0.000000       0.000000    
   1.122019       1.258926       0.000000       0.000000    
   1.258926       1.412539       0.000000       0.000000    
   1.412539       1.584894       0.000000       0.000000    
   1.584894       1.778281       0.000000       0.000000    
   1.778281       1.995264       0.000000       0.000000    
   1.995264       2.238723       0.000000       0.000000    
   2.238723       2.511888       0.000000       0.000000    
   2.511888       2.818385       0.000000       0.000000    
   2.818385       3.162280       0.000000       0.000000    
   3.162280       3.548136       0.000000       0.000000    
   3.548136       3.981075       0.000000       0.000000    
   3.981075       4.466839       0.000000       0.000000    
   4.466839       5.011876       0.000000       0.000000    
   5.011876       5.623418       0.000000       0.000000    
   5.623418       6.309578       0.000000       0.000000    
   6.309578       7.079463       0.000000       0.000000    
   7.079463       7.943289       0.000000       0.000000    
   7.943289       8.912516       0.000000       0.000000    
   8.912516       10.00001       0.000000       0.000000    
