 # Detector n:            1   pipDG7    
 # N. of energy intervals         120
  9.9999997E-06  1.1220184E-05   0.000000       0.000000    
  1.1220184E-05  1.2589254E-05   0.000000       0.000000    
  1.2589254E-05  1.4125375E-05   0.000000       0.000000    
  1.4125375E-05  1.5848931E-05   0.000000       0.000000    
  1.5848931E-05  1.7782793E-05   0.000000       0.000000    
  1.7782793E-05  1.9952624E-05   0.000000       0.000000    
  1.9952624E-05  2.2387210E-05   0.000000       0.000000    
  2.2387210E-05  2.5118865E-05   0.000000       0.000000    
  2.5118865E-05  2.8183831E-05   0.000000       0.000000    
  2.8183831E-05  3.1622778E-05   0.000000       0.000000    
  3.1622778E-05  3.5481338E-05   0.000000       0.000000    
  3.5481338E-05  3.9810719E-05   0.000000       0.000000    
  3.9810719E-05  4.4668363E-05   0.000000       0.000000    
  4.4668363E-05  5.0118728E-05   0.000000       0.000000    
  5.0118728E-05  5.6234134E-05   0.000000       0.000000    
  5.6234134E-05  6.3095737E-05   0.000000       0.000000    
  6.3095737E-05  7.0794587E-05   0.000000       0.000000    
  7.0794587E-05  7.9432837E-05   0.000000       0.000000    
  7.9432837E-05  8.9125104E-05   0.000000       0.000000    
  8.9125104E-05  1.0000000E-04   0.000000       0.000000    
  1.0000000E-04  1.1220186E-04   0.000000       0.000000    
  1.1220186E-04  1.2589256E-04   0.000000       0.000000    
  1.2589256E-04  1.4125377E-04   0.000000       0.000000    
  1.4125377E-04  1.5848935E-04   0.000000       0.000000    
  1.5848935E-04  1.7782798E-04   0.000000       0.000000    
  1.7782798E-04  1.9952627E-04   0.000000       0.000000    
  1.9952627E-04  2.2387214E-04   0.000000       0.000000    
  2.2387214E-04  2.5118867E-04   0.000000       0.000000    
  2.5118867E-04  2.8183835E-04   0.000000       0.000000    
  2.8183835E-04  3.1622782E-04   0.000000       0.000000    
  3.1622782E-04  3.5481344E-04   0.000000       0.000000    
  3.5481344E-04  3.9810725E-04   0.000000       0.000000    
  3.9810725E-04  4.4668367E-04   0.000000       0.000000    
  4.4668367E-04  5.0118734E-04   0.000000       0.000000    
  5.0118734E-04  5.6234142E-04   0.000000       0.000000    
  5.6234142E-04  6.3095748E-04   0.000000       0.000000    
  6.3095748E-04  7.0794590E-04   0.000000       0.000000    
  7.0794590E-04  7.9432846E-04   0.000000       0.000000    
  7.9432846E-04  8.9125114E-04   0.000000       0.000000    
  8.9125114E-04  1.0000003E-03   0.000000       0.000000    
  1.0000003E-03  1.1220188E-03   0.000000       0.000000    
  1.1220188E-03  1.2589258E-03   0.000000       0.000000    
  1.2589258E-03  1.4125380E-03   0.000000       0.000000    
  1.4125380E-03  1.5848936E-03   0.000000       0.000000    
  1.5848936E-03  1.7782800E-03   0.000000       0.000000    
  1.7782800E-03  1.9952629E-03   0.000000       0.000000    
  1.9952629E-03  2.2387218E-03   0.000000       0.000000    
  2.2387218E-03  2.5118871E-03   0.000000       0.000000    
  2.5118871E-03  2.8183837E-03   0.000000       0.000000    
  2.8183837E-03  3.1622786E-03   0.000000       0.000000    
  3.1622786E-03  3.5481353E-03   0.000000       0.000000    
  3.5481353E-03  3.9810729E-03   0.000000       0.000000    
  3.9810729E-03  4.4668377E-03   0.000000       0.000000    
  4.4668377E-03  5.0118743E-03   0.000000       0.000000    
  5.0118743E-03  5.6234146E-03   0.000000       0.000000    
  5.6234146E-03  6.3095763E-03   0.000000       0.000000    
  6.3095763E-03  7.0794607E-03   0.000000       0.000000    
  7.0794607E-03  7.9432856E-03   0.000000       0.000000    
  7.9432856E-03  8.9125130E-03   0.000000       0.000000    
  8.9125130E-03  1.0000004E-02   0.000000       0.000000    
  1.0000004E-02  1.1220189E-02   0.000000       0.000000    
  1.1220189E-02  1.2589260E-02   0.000000       0.000000    
  1.2589260E-02  1.4125382E-02   0.000000       0.000000    
  1.4125382E-02  1.5848938E-02   0.000000       0.000000    
  1.5848938E-02  1.7782802E-02   0.000000       0.000000    
  1.7782802E-02  1.9952632E-02  4.6000250E-02   99.00000    
  1.9952632E-02  2.2387221E-02  3.2172222E-02   82.27334    
  2.2387221E-02  2.5118876E-02   0.000000       0.000000    
  2.5118876E-02  2.8183842E-02   0.000000       0.000000    
  2.8183842E-02  3.1622794E-02   0.000000       0.000000    
  3.1622794E-02  3.5481352E-02  9.5994264E-02   71.19713    
  3.5481352E-02  3.9810736E-02  4.8054397E-02   99.00000    
  3.9810736E-02  4.4668384E-02   0.000000       0.000000    
  4.4668384E-02  5.0118748E-02   0.000000       0.000000    
  5.0118748E-02  5.6234159E-02   0.000000       0.000000    
  5.6234159E-02  6.3095763E-02  4.8402082E-02   72.59981    
  6.3095763E-02  7.0794620E-02  2.9443674E-02   99.00000    
  7.0794620E-02  7.9432867E-02   0.000000       0.000000    
  7.9432867E-02  8.9125134E-02  5.8252413E-02   58.54659    
  8.9125134E-02  0.1000001      5.4041978E-02   54.29008    
  0.1000001      0.1122019      5.3550061E-02   57.31725    
  0.1122019      0.1258926      2.7502535E-02   66.09325    
  0.1258926      0.1412538      3.0941004E-02   56.72564    
  0.1412538      0.1584894      3.1818304E-02   59.99905    
  0.1584894      0.1778280      5.9115514E-02   42.13243    
  0.1778280      0.1995264      1.9683558E-02   70.20767    
  0.1995264      0.2238722      2.0534138E-03   99.00000    
  0.2238722      0.2511888      6.1181445E-02   33.54126    
  0.2511888      0.2818385      2.4797333E-02   47.26104    
  0.2818385      0.3162280      8.3055086E-03   79.50678    
  0.3162280      0.3548136      6.9785230E-03   81.68893    
  0.3548136      0.3981074      1.0038238E-02   70.20705    
  0.3981074      0.4466839      5.2012373E-03   87.05994    
  0.4466839      0.5011876      3.3155030E-03   99.00000    
  0.5011876      0.5623417      3.5186582E-03   99.00000    
  0.5623417      0.6309578      3.5304960E-03   90.81600    
  0.6309578      0.7079462       0.000000       0.000000    
  0.7079462      0.7943288       0.000000       0.000000    
  0.7943288      0.8912516       0.000000       0.000000    
  0.8912516       1.000001       0.000000       0.000000    
   1.000001       1.122019       0.000000       0.000000    
   1.122019       1.258926       0.000000       0.000000    
   1.258926       1.412539       0.000000       0.000000    
   1.412539       1.584894       0.000000       0.000000    
   1.584894       1.778281       0.000000       0.000000    
   1.778281       1.995264       0.000000       0.000000    
   1.995264       2.238723       0.000000       0.000000    
   2.238723       2.511888       0.000000       0.000000    
   2.511888       2.818385       0.000000       0.000000    
   2.818385       3.162280       0.000000       0.000000    
   3.162280       3.548136       0.000000       0.000000    
   3.548136       3.981075       0.000000       0.000000    
   3.981075       4.466839       0.000000       0.000000    
   4.466839       5.011876       0.000000       0.000000    
   5.011876       5.623418       0.000000       0.000000    
   5.623418       6.309578       0.000000       0.000000    
   6.309578       7.079463       0.000000       0.000000    
   7.079463       7.943289       0.000000       0.000000    
   7.943289       8.912516       0.000000       0.000000    
   8.912516       10.00001       0.000000       0.000000    


 # Detector n:            2   pimDG7    
 # N. of energy intervals         120
  9.9999997E-06  1.1220184E-05   0.000000       0.000000    
  1.1220184E-05  1.2589254E-05   0.000000       0.000000    
  1.2589254E-05  1.4125375E-05   0.000000       0.000000    
  1.4125375E-05  1.5848931E-05   0.000000       0.000000    
  1.5848931E-05  1.7782793E-05   0.000000       0.000000    
  1.7782793E-05  1.9952624E-05   0.000000       0.000000    
  1.9952624E-05  2.2387210E-05   0.000000       0.000000    
  2.2387210E-05  2.5118865E-05   0.000000       0.000000    
  2.5118865E-05  2.8183831E-05   0.000000       0.000000    
  2.8183831E-05  3.1622778E-05   0.000000       0.000000    
  3.1622778E-05  3.5481338E-05   0.000000       0.000000    
  3.5481338E-05  3.9810719E-05   0.000000       0.000000    
  3.9810719E-05  4.4668363E-05   0.000000       0.000000    
  4.4668363E-05  5.0118728E-05   0.000000       0.000000    
  5.0118728E-05  5.6234134E-05   0.000000       0.000000    
  5.6234134E-05  6.3095737E-05   0.000000       0.000000    
  6.3095737E-05  7.0794587E-05   0.000000       0.000000    
  7.0794587E-05  7.9432837E-05   0.000000       0.000000    
  7.9432837E-05  8.9125104E-05   0.000000       0.000000    
  8.9125104E-05  1.0000000E-04   0.000000       0.000000    
  1.0000000E-04  1.1220186E-04   0.000000       0.000000    
  1.1220186E-04  1.2589256E-04   0.000000       0.000000    
  1.2589256E-04  1.4125377E-04   0.000000       0.000000    
  1.4125377E-04  1.5848935E-04   0.000000       0.000000    
  1.5848935E-04  1.7782798E-04   0.000000       0.000000    
  1.7782798E-04  1.9952627E-04   0.000000       0.000000    
  1.9952627E-04  2.2387214E-04   0.000000       0.000000    
  2.2387214E-04  2.5118867E-04   0.000000       0.000000    
  2.5118867E-04  2.8183835E-04   0.000000       0.000000    
  2.8183835E-04  3.1622782E-04   0.000000       0.000000    
  3.1622782E-04  3.5481344E-04   0.000000       0.000000    
  3.5481344E-04  3.9810725E-04   0.000000       0.000000    
  3.9810725E-04  4.4668367E-04   0.000000       0.000000    
  4.4668367E-04  5.0118734E-04   0.000000       0.000000    
  5.0118734E-04  5.6234142E-04   0.000000       0.000000    
  5.6234142E-04  6.3095748E-04   0.000000       0.000000    
  6.3095748E-04  7.0794590E-04   0.000000       0.000000    
  7.0794590E-04  7.9432846E-04   0.000000       0.000000    
  7.9432846E-04  8.9125114E-04   0.000000       0.000000    
  8.9125114E-04  1.0000003E-03   0.000000       0.000000    
  1.0000003E-03  1.1220188E-03   0.000000       0.000000    
  1.1220188E-03  1.2589258E-03   0.000000       0.000000    
  1.2589258E-03  1.4125380E-03   0.000000       0.000000    
  1.4125380E-03  1.5848936E-03   0.000000       0.000000    
  1.5848936E-03  1.7782800E-03   0.000000       0.000000    
  1.7782800E-03  1.9952629E-03   0.000000       0.000000    
  1.9952629E-03  2.2387218E-03   0.000000       0.000000    
  2.2387218E-03  2.5118871E-03   0.000000       0.000000    
  2.5118871E-03  2.8183837E-03   0.000000       0.000000    
  2.8183837E-03  3.1622786E-03   0.000000       0.000000    
  3.1622786E-03  3.5481353E-03   0.000000       0.000000    
  3.5481353E-03  3.9810729E-03   0.000000       0.000000    
  3.9810729E-03  4.4668377E-03   0.000000       0.000000    
  4.4668377E-03  5.0118743E-03   0.000000       0.000000    
  5.0118743E-03  5.6234146E-03   0.000000       0.000000    
  5.6234146E-03  6.3095763E-03   0.000000       0.000000    
  6.3095763E-03  7.0794607E-03   0.000000       0.000000    
  7.0794607E-03  7.9432856E-03   0.000000       0.000000    
  7.9432856E-03  8.9125130E-03   0.000000       0.000000    
  8.9125130E-03  1.0000004E-02   0.000000       0.000000    
  1.0000004E-02  1.1220189E-02   0.000000       0.000000    
  1.1220189E-02  1.2589260E-02   0.000000       0.000000    
  1.2589260E-02  1.4125382E-02   0.000000       0.000000    
  1.4125382E-02  1.5848938E-02   0.000000       0.000000    
  1.5848938E-02  1.7782802E-02   0.000000       0.000000    
  1.7782802E-02  1.9952632E-02   0.000000       0.000000    
  1.9952632E-02  2.2387221E-02   0.000000       0.000000    
  2.2387221E-02  2.5118876E-02   0.000000       0.000000    
  2.5118876E-02  2.8183842E-02   0.000000       0.000000    
  2.8183842E-02  3.1622794E-02  6.3628197E-02   99.00000    
  3.1622794E-02  3.5481352E-02  2.8802067E-02   99.00000    
  3.5481352E-02  3.9810736E-02   0.000000       0.000000    
  3.9810736E-02  4.4668384E-02  0.1265994       57.88370    
  4.4668384E-02  5.0118748E-02  4.2732276E-02   92.76656    
  5.0118748E-02  5.6234159E-02  7.1346946E-02   70.21186    
  5.6234159E-02  6.3095763E-02  4.5052506E-02   76.62984    
  6.3095763E-02  7.0794620E-02  7.1469650E-02   57.55281    
  7.0794620E-02  7.9432867E-02  2.8118953E-02   72.54137    
  7.9432867E-02  8.9125134E-02  2.8905654E-02   71.13245    
  8.9125134E-02  0.1000001      2.7008187E-02   64.43908    
  0.1000001      0.1122019      3.5356309E-02   70.20298    
  0.1122019      0.1258926      1.4762954E-02   83.27059    
  0.1258926      0.1412538      2.6368110E-03   99.00000    
  0.1412538      0.1584894      4.6445012E-02   50.06044    
  0.1584894      0.1778280      4.1102659E-02   48.40664    
  0.1778280      0.1995264      1.8977989E-02   66.34252    
  0.1995264      0.2238722      1.3695695E-02   70.61393    
  0.2238722      0.2511888      2.9366711E-02   49.98718    
  0.2511888      0.2818385      2.3238780E-02   99.00000    
  0.2818385      0.3162280      1.2551931E-02   70.20406    
  0.3162280      0.3548136      1.7029224E-02   57.31653    
  0.3548136      0.3981074      5.0220052E-03   99.00000    
  0.3981074      0.4466839      8.8626808E-03   70.20304    
  0.4466839      0.5011876       0.000000       0.000000    
  0.5011876      0.5623417      3.5033538E-03   99.00000    
  0.5623417      0.6309578      3.1269575E-03   99.00000    
  0.6309578      0.7079462       0.000000       0.000000    
  0.7079462      0.7943288       0.000000       0.000000    
  0.7943288      0.8912516       0.000000       0.000000    
  0.8912516       1.000001       0.000000       0.000000    
   1.000001       1.122019       0.000000       0.000000    
   1.122019       1.258926       0.000000       0.000000    
   1.258926       1.412539       0.000000       0.000000    
   1.412539       1.584894       0.000000       0.000000    
   1.584894       1.778281       0.000000       0.000000    
   1.778281       1.995264       0.000000       0.000000    
   1.995264       2.238723       0.000000       0.000000    
   2.238723       2.511888       0.000000       0.000000    
   2.511888       2.818385       0.000000       0.000000    
   2.818385       3.162280       0.000000       0.000000    
   3.162280       3.548136       0.000000       0.000000    
   3.548136       3.981075       0.000000       0.000000    
   3.981075       4.466839       0.000000       0.000000    
   4.466839       5.011876       0.000000       0.000000    
   5.011876       5.623418       0.000000       0.000000    
   5.623418       6.309578       0.000000       0.000000    
   6.309578       7.079463       0.000000       0.000000    
   7.079463       7.943289       0.000000       0.000000    
   7.943289       8.912516       0.000000       0.000000    
   8.912516       10.00001       0.000000       0.000000    


 # Detector n:            3   prDG7     
 # N. of energy intervals         120
  9.9999997E-06  1.1220184E-05   0.000000       0.000000    
  1.1220184E-05  1.2589254E-05   0.000000       0.000000    
  1.2589254E-05  1.4125375E-05   0.000000       0.000000    
  1.4125375E-05  1.5848931E-05   0.000000       0.000000    
  1.5848931E-05  1.7782793E-05   0.000000       0.000000    
  1.7782793E-05  1.9952624E-05   0.000000       0.000000    
  1.9952624E-05  2.2387210E-05   0.000000       0.000000    
  2.2387210E-05  2.5118865E-05   0.000000       0.000000    
  2.5118865E-05  2.8183831E-05   0.000000       0.000000    
  2.8183831E-05  3.1622778E-05   0.000000       0.000000    
  3.1622778E-05  3.5481338E-05   0.000000       0.000000    
  3.5481338E-05  3.9810719E-05   0.000000       0.000000    
  3.9810719E-05  4.4668363E-05   0.000000       0.000000    
  4.4668363E-05  5.0118728E-05   38.97313       2.851622    
  5.0118728E-05  5.6234134E-05   0.000000       0.000000    
  5.6234134E-05  6.3095737E-05   0.000000       0.000000    
  6.3095737E-05  7.0794587E-05   0.000000       0.000000    
  7.0794587E-05  7.9432837E-05   0.000000       0.000000    
  7.9432837E-05  8.9125104E-05   0.000000       0.000000    
  8.9125104E-05  1.0000000E-04  1.1205494E-02   11.70438    
  1.0000000E-04  1.1220186E-04   1.655953       2.928665    
  1.1220186E-04  1.2589256E-04   1.590225       2.951964    
  1.2589256E-04  1.4125377E-04   1.636831       2.943738    
  1.4125377E-04  1.5848935E-04   1.658556       2.893615    
  1.5848935E-04  1.7782798E-04   1.714951       2.919986    
  1.7782798E-04  1.9952627E-04   1.775459       2.896084    
  1.9952627E-04  2.2387214E-04   1.885904       2.900376    
  2.2387214E-04  2.5118867E-04   1.986273       2.912709    
  2.5118867E-04  2.8183835E-04   2.126755       2.954425    
  2.8183835E-04  3.1622782E-04   2.325119       2.965669    
  3.1622782E-04  3.5481344E-04   2.541274       2.974608    
  3.5481344E-04  3.9810725E-04   2.850435       2.990015    
  3.9810725E-04  4.4668367E-04   3.242420       2.989031    
  4.4668367E-04  5.0118734E-04   3.753590       3.039295    
  5.0118734E-04  5.6234142E-04   3.811962       2.995169    
  5.6234142E-04  6.3095748E-04  0.3768360       8.939985    
  6.3095748E-04  7.0794590E-04  0.4037889       9.082285    
  7.0794590E-04  7.9432846E-04  0.4575038       9.171304    
  7.9432846E-04  8.9125114E-04  0.4603129       9.084811    
  8.9125114E-04  1.0000003E-03  0.4908024       9.026039    
  1.0000003E-03  1.1220188E-03  0.5320545       9.143716    
  1.1220188E-03  1.2589258E-03  0.5226019       9.345880    
  1.2589258E-03  1.4125380E-03  0.5473899       9.676128    
  1.4125380E-03  1.5848936E-03  0.5957102       9.696795    
  1.5848936E-03  1.7782800E-03  0.6718727       10.06686    
  1.7782800E-03  1.9952629E-03  0.6841902       10.23524    
  1.9952629E-03  2.2387218E-03  0.7035415       10.23277    
  2.2387218E-03  2.5118871E-03  0.7519214       10.17957    
  2.5118871E-03  2.8183837E-03  0.8392198       11.04630    
  2.8183837E-03  3.1622786E-03  0.8570899       11.05508    
  3.1622786E-03  3.5481353E-03  0.8824949       11.34431    
  3.5481353E-03  3.9810729E-03  0.8881679       11.22801    
  3.9810729E-03  4.4668377E-03  0.9640914       11.95098    
  4.4668377E-03  5.0118743E-03   1.002719       11.83709    
  5.0118743E-03  5.6234146E-03   1.045147       12.46166    
  5.6234146E-03  6.3095763E-03   1.078481       12.59371    
  6.3095763E-03  7.0794607E-03   1.255367       13.19665    
  7.0794607E-03  7.9432856E-03   1.321366       12.36195    
  7.9432856E-03  8.9125130E-03   1.312208       13.80622    
  8.9125130E-03  1.0000004E-02   1.198885       13.98707    
  1.0000004E-02  1.1220189E-02   1.419039       13.25856    
  1.1220189E-02  1.2589260E-02   1.583418       12.18281    
  1.2589260E-02  1.4125382E-02   1.647608       12.17035    
  1.4125382E-02  1.5848938E-02   1.683320       12.82453    
  1.5848938E-02  1.7782802E-02   1.723782       13.12700    
  1.7782802E-02  1.9952632E-02   1.367492       14.80529    
  1.9952632E-02  2.2387221E-02   1.241403       15.11977    
  2.2387221E-02  2.5118876E-02   1.652370       13.86590    
  2.5118876E-02  2.8183842E-02   1.569765       14.39441    
  2.8183842E-02  3.1622794E-02   1.322860       15.40478    
  3.1622794E-02  3.5481352E-02   1.912562       13.83282    
  3.5481352E-02  3.9810736E-02   1.474736       14.91482    
  3.9810736E-02  4.4668384E-02   1.574712       14.07598    
  4.4668384E-02  5.0118748E-02   1.114698       15.30461    
  5.0118748E-02  5.6234159E-02   1.253821       14.72772    
  5.6234159E-02  6.3095763E-02   1.076349       14.66490    
  6.3095763E-02  7.0794620E-02   1.113962       13.94428    
  7.0794620E-02  7.9432867E-02   1.021362       14.03590    
  7.9432867E-02  8.9125134E-02  0.9783023       14.05471    
  8.9125134E-02  0.1000001      0.8989242       13.33472    
  0.1000001      0.1122019      0.6887573       14.77158    
  0.1122019      0.1258926      0.6199571       15.17871    
  0.1258926      0.1412538      0.4385987       16.99460    
  0.1412538      0.1584894      0.3556325       17.07984    
  0.1584894      0.1778280      0.2761511       18.59756    
  0.1778280      0.1995264      0.1971228       23.33156    
  0.1995264      0.2238722      0.1878778       21.34815    
  0.2238722      0.2511888      0.1584710       21.01390    
  0.2511888      0.2818385      0.1069851       24.51302    
  0.2818385      0.3162280      7.9746231E-02   26.91606    
  0.3162280      0.3548136      4.9449824E-02   31.55629    
  0.3548136      0.3981074      2.8000660E-02   40.34011    
  0.3981074      0.4466839      2.4994604E-02   39.55672    
  0.4466839      0.5011876      1.3632276E-02   51.46449    
  0.5011876      0.5623417      4.6987785E-03   79.95983    
  0.5623417      0.6309578      5.9088459E-03   70.34066    
  0.6309578      0.7079462       0.000000       0.000000    
  0.7079462      0.7943288       0.000000       0.000000    
  0.7943288      0.8912516      9.3801698E-04   80.40811    
  0.8912516       1.000001       0.000000       0.000000    
   1.000001       1.122019       0.000000       0.000000    
   1.122019       1.258926       0.000000       0.000000    
   1.258926       1.412539       0.000000       0.000000    
   1.412539       1.584894       0.000000       0.000000    
   1.584894       1.778281       0.000000       0.000000    
   1.778281       1.995264       0.000000       0.000000    
   1.995264       2.238723       0.000000       0.000000    
   2.238723       2.511888       0.000000       0.000000    
   2.511888       2.818385       0.000000       0.000000    
   2.818385       3.162280       0.000000       0.000000    
   3.162280       3.548136       0.000000       0.000000    
   3.548136       3.981075       0.000000       0.000000    
   3.981075       4.466839       0.000000       0.000000    
   4.466839       5.011876       0.000000       0.000000    
   5.011876       5.623418       0.000000       0.000000    
   5.623418       6.309578       0.000000       0.000000    
   6.309578       7.079463       0.000000       0.000000    
   7.079463       7.943289       0.000000       0.000000    
   7.943289       8.912516       0.000000       0.000000    
   8.912516       10.00001       0.000000       0.000000    


 # Detector n:            4   phDG7     
 # N. of energy intervals         120
  9.9999997E-06  1.1220184E-05   1077.720       31.89107    
  1.1220184E-05  1.2589254E-05   874.1094       35.31517    
  1.2589254E-05  1.4125375E-05   1655.702       24.61016    
  1.4125375E-05  1.5848931E-05   1647.504       34.87466    
  1.5848931E-05  1.7782793E-05   1873.617       23.28191    
  1.7782793E-05  1.9952624E-05   2106.936       19.12169    
  1.9952624E-05  2.2387210E-05   2340.798       17.57924    
  2.2387210E-05  2.5118865E-05   1829.903       18.81363    
  2.5118865E-05  2.8183831E-05   2412.978       18.38585    
  2.8183831E-05  3.1622778E-05   2988.896       13.74105    
  3.1622778E-05  3.5481338E-05   3313.635       12.94541    
  3.5481338E-05  3.9810719E-05   5830.242       8.659733    
  3.9810719E-05  4.4668363E-05   10834.08       5.807527    
  4.4668363E-05  5.0118728E-05   24741.32       3.812724    
  5.0118728E-05  5.6234134E-05   46537.86       2.622909    
  5.6234134E-05  6.3095737E-05   79092.63       1.890629    
  6.3095737E-05  7.0794587E-05   118219.9       1.476548    
  7.0794587E-05  7.9432837E-05   152083.1       1.197011    
  7.9432837E-05  8.9125104E-05   171906.2       1.061322    
  8.9125104E-05  1.0000000E-04   182211.2      0.9884294    
  1.0000000E-04  1.1220186E-04   176634.3      0.9502792    
  1.1220186E-04  1.2589256E-04   167514.5      0.9234091    
  1.2589256E-04  1.4125377E-04   153551.9      0.8858924    
  1.4125377E-04  1.5848935E-04   135739.1      0.9078514    
  1.5848935E-04  1.7782798E-04   119312.2      0.9037201    
  1.7782798E-04  1.9952627E-04   101583.0      0.9318317    
  1.9952627E-04  2.2387214E-04   85158.27      0.9572676    
  2.2387214E-04  2.5118867E-04   72343.82      0.9881238    
  2.5118867E-04  2.8183835E-04   57501.34       1.043254    
  2.8183835E-04  3.1622782E-04   44586.15       1.104540    
  3.1622782E-04  3.5481344E-04   35672.12       1.158447    
  3.5481344E-04  3.9810725E-04   29929.87       1.214861    
  3.9810725E-04  4.4668367E-04   25423.56       1.269654    
  4.4668367E-04  5.0118734E-04   24673.69       1.206577    
  5.0118734E-04  5.6234142E-04   33793.38      0.9918836    
  5.6234142E-04  6.3095748E-04   11919.15       1.540684    
  6.3095748E-04  7.0794590E-04   10339.23       1.554763    
  7.0794590E-04  7.9432846E-04   9772.587       1.506639    
  7.9432846E-04  8.9125114E-04   10036.33       1.407885    
  8.9125114E-04  1.0000003E-03   8999.698       1.414643    
  1.0000003E-03  1.1220188E-03   6472.233       1.578305    
  1.1220188E-03  1.2589258E-03   6170.169       1.525394    
  1.2589258E-03  1.4125380E-03   5626.876       1.523642    
  1.4125380E-03  1.5848936E-03   4731.171       1.519038    
  1.5848936E-03  1.7782800E-03   5316.506       1.375011    
  1.7782800E-03  1.9952629E-03   5611.820       1.263209    
  1.9952629E-03  2.2387218E-03   5102.422       1.249498    
  2.2387218E-03  2.5118871E-03   4411.539       1.314074    
  2.5118871E-03  2.8183837E-03   2741.298       1.510032    
  2.8183837E-03  3.1622786E-03   2324.011       1.606650    
  3.1622786E-03  3.5481353E-03   1982.248       1.565365    
  3.5481353E-03  3.9810729E-03   2675.782       1.325562    
  3.9810729E-03  4.4668377E-03   1811.545       1.514164    
  4.4668377E-03  5.0118743E-03   1711.962       1.452657    
  5.0118743E-03  5.6234146E-03   1254.454       1.563959    
  5.6234146E-03  6.3095763E-03   1236.644       1.547149    
  6.3095763E-03  7.0794607E-03   877.0596       1.730509    
  7.0794607E-03  7.9432856E-03   1078.801       1.442478    
  7.9432856E-03  8.9125130E-03   249.8346       2.832769    
  8.9125130E-03  1.0000004E-02   175.9487       3.240221    
  1.0000004E-02  1.1220189E-02   42.94397       6.082850    
  1.1220189E-02  1.2589260E-02   28.64846       6.920527    
  1.2589260E-02  1.4125382E-02   18.64473       8.899850    
  1.4125382E-02  1.5848938E-02   14.86494       9.170561    
  1.5848938E-02  1.7782802E-02   11.25334       10.38824    
  1.7782802E-02  1.9952632E-02   7.772850       11.03659    
  1.9952632E-02  2.2387221E-02   5.330326       12.32458    
  2.2387221E-02  2.5118876E-02   5.754767       11.19435    
  2.5118876E-02  2.8183842E-02   4.172863       14.16814    
  2.8183842E-02  3.1622794E-02   2.173235       15.75420    
  3.1622794E-02  3.5481352E-02   2.241615       14.58895    
  3.5481352E-02  3.9810736E-02   2.007972       14.61145    
  3.9810736E-02  4.4668384E-02   1.784047       15.28959    
  4.4668384E-02  5.0118748E-02   1.143470       17.35638    
  5.0118748E-02  5.6234159E-02  0.9383410       18.78191    
  5.6234159E-02  6.3095763E-02  0.9972458       16.87648    
  6.3095763E-02  7.0794620E-02  0.8159182       17.97989    
  7.0794620E-02  7.9432867E-02  0.3840868       25.73485    
  7.9432867E-02  8.9125134E-02  0.4429448       20.74191    
  8.9125134E-02  0.1000001      0.3941725       20.57502    
  0.1000001      0.1122019      0.1372458       33.69510    
  0.1122019      0.1258926      0.3462929       20.35078    
  0.1258926      0.1412538      0.1681650       28.22580    
  0.1412538      0.1584894      9.9444129E-02   33.04986    
  0.1584894      0.1778280      9.2432238E-02   33.26862    
  0.1778280      0.1995264      0.1223215       27.90249    
  0.1995264      0.2238722      5.7306152E-02   33.67990    
  0.2238722      0.2511888      4.3861754E-02   41.37158    
  0.2511888      0.2818385      1.9180791E-02   57.88152    
  0.2818385      0.3162280      1.8850336E-02   57.30584    
  0.3162280      0.3548136      1.2135698E-02   65.06976    
  0.3548136      0.3981074      3.0240137E-03   99.00000    
  0.3981074      0.4466839      4.4846870E-03   99.00000    
  0.4466839      0.5011876       0.000000       0.000000    
  0.5011876      0.5623417       0.000000       0.000000    
  0.5623417      0.6309578       0.000000       0.000000    
  0.6309578      0.7079462       0.000000       0.000000    
  0.7079462      0.7943288       0.000000       0.000000    
  0.7943288      0.8912516       0.000000       0.000000    
  0.8912516       1.000001       0.000000       0.000000    
   1.000001       1.122019       0.000000       0.000000    
   1.122019       1.258926       0.000000       0.000000    
   1.258926       1.412539       0.000000       0.000000    
   1.412539       1.584894       0.000000       0.000000    
   1.584894       1.778281       0.000000       0.000000    
   1.778281       1.995264       0.000000       0.000000    
   1.995264       2.238723       0.000000       0.000000    
   2.238723       2.511888       0.000000       0.000000    
   2.511888       2.818385       0.000000       0.000000    
   2.818385       3.162280       0.000000       0.000000    
   3.162280       3.548136       0.000000       0.000000    
   3.548136       3.981075       0.000000       0.000000    
   3.981075       4.466839       0.000000       0.000000    
   4.466839       5.011876       0.000000       0.000000    
   5.011876       5.623418       0.000000       0.000000    
   5.623418       6.309578       0.000000       0.000000    
   6.309578       7.079463       0.000000       0.000000    
   7.079463       7.943289       0.000000       0.000000    
   7.943289       8.912516       0.000000       0.000000    
   8.912516       10.00001       0.000000       0.000000    


 # Detector n:            5   epDG7     
 # N. of energy intervals         120
  9.9999997E-06  1.1220184E-05   0.000000       0.000000    
  1.1220184E-05  1.2589254E-05   0.000000       0.000000    
  1.2589254E-05  1.4125375E-05   0.000000       0.000000    
  1.4125375E-05  1.5848931E-05   0.000000       0.000000    
  1.5848931E-05  1.7782793E-05   0.000000       0.000000    
  1.7782793E-05  1.9952624E-05   0.000000       0.000000    
  1.9952624E-05  2.2387210E-05   1.546752       40.84612    
  2.2387210E-05  2.5118865E-05   12.02098       14.09759    
  2.5118865E-05  2.8183831E-05   144.4443       3.770293    
  2.8183831E-05  3.1622778E-05   697.2278       1.854774    
  3.1622778E-05  3.5481338E-05   631.1747       2.075655    
  3.5481338E-05  3.9810719E-05   646.1943       2.141704    
  3.9810719E-05  4.4668363E-05   641.7457       2.224706    
  4.4668363E-05  5.0118728E-05   647.4849       2.290518    
  5.0118728E-05  5.6234134E-05   634.3233       2.279473    
  5.6234134E-05  6.3095737E-05   641.5712       2.412043    
  6.3095737E-05  7.0794587E-05   633.0168       2.492295    
  7.0794587E-05  7.9432837E-05   631.6166       2.577603    
  7.9432837E-05  8.9125104E-05   630.1911       2.694802    
  8.9125104E-05  1.0000000E-04   618.5129       2.743092    
  1.0000000E-04  1.1220186E-04   618.1765       2.863194    
  1.1220186E-04  1.2589256E-04   594.3182       2.991561    
  1.2589256E-04  1.4125377E-04   571.1640       3.073261    
  1.4125377E-04  1.5848935E-04   591.9293       3.025482    
  1.5848935E-04  1.7782798E-04   536.7195       3.127591    
  1.7782798E-04  1.9952627E-04   558.1861       2.891161    
  1.9952627E-04  2.2387214E-04   541.7853       2.897667    
  2.2387214E-04  2.5118867E-04   518.9207       3.018031    
  2.5118867E-04  2.8183835E-04   501.9216       3.132823    
  2.8183835E-04  3.1622782E-04   474.8690       3.340587    
  3.1622782E-04  3.5481344E-04   452.0912       3.359748    
  3.5481344E-04  3.9810725E-04   428.3759       3.459890    
  3.9810725E-04  4.4668367E-04   419.0940       3.534706    
  4.4668367E-04  5.0118734E-04   398.1232       3.661902    
  5.0118734E-04  5.6234142E-04   387.2073       3.811027    
  5.6234142E-04  6.3095748E-04   364.8822       3.959496    
  6.3095748E-04  7.0794590E-04   338.2259       4.031746    
  7.0794590E-04  7.9432846E-04   326.4423       4.159221    
  7.9432846E-04  8.9125114E-04   295.7299       4.290678    
  8.9125114E-04  1.0000003E-03   267.3443       4.573419    
  1.0000003E-03  1.1220188E-03   247.5839       4.475047    
  1.1220188E-03  1.2589258E-03   234.7287       4.447558    
  1.2589258E-03  1.4125380E-03   222.8923       4.577887    
  1.4125380E-03  1.5848936E-03   181.3499       4.947333    
  1.5848936E-03  1.7782800E-03   151.6908       5.311558    
  1.7782800E-03  1.9952629E-03   132.3219       5.604176    
  1.9952629E-03  2.2387218E-03   116.7534       5.789437    
  2.2387218E-03  2.5118871E-03   97.85321       6.154495    
  2.5118871E-03  2.8183837E-03   89.55705       6.705315    
  2.8183837E-03  3.1622786E-03   71.56042       7.668870    
  3.1622786E-03  3.5481353E-03   58.80697       7.079026    
  3.5481353E-03  3.9810729E-03   45.16223       8.069711    
  3.9810729E-03  4.4668377E-03   41.00397       8.474139    
  4.4668377E-03  5.0118743E-03   31.22228       8.756332    
  5.0118743E-03  5.6234146E-03   25.60183       9.527416    
  5.6234146E-03  6.3095763E-03   19.23918       10.29411    
  6.3095763E-03  7.0794607E-03   9.548382       14.10195    
  7.0794607E-03  7.9432856E-03   6.303563       16.45669    
  7.9432856E-03  8.9125130E-03   5.293570       18.52881    
  8.9125130E-03  1.0000004E-02   2.378365       24.03055    
  1.0000004E-02  1.1220189E-02   2.820164       23.08653    
  1.1220189E-02  1.2589260E-02   2.228714       22.43800    
  1.2589260E-02  1.4125382E-02   2.351124       21.70899    
  1.4125382E-02  1.5848938E-02   2.466611       20.14636    
  1.5848938E-02  1.7782802E-02   1.451383       23.44965    
  1.7782802E-02  1.9952632E-02   1.685992       20.59769    
  1.9952632E-02  2.2387221E-02   2.139318       18.03773    
  2.2387221E-02  2.5118876E-02   1.485016       20.99704    
  2.5118876E-02  2.8183842E-02   1.162508       20.95222    
  2.8183842E-02  3.1622794E-02   1.280010       25.13410    
  3.1622794E-02  3.5481352E-02   1.336054       19.37975    
  3.5481352E-02  3.9810736E-02   1.030390       19.47483    
  3.9810736E-02  4.4668384E-02  0.5717931       24.91486    
  4.4668384E-02  5.0118748E-02  0.6470585       22.79233    
  5.0118748E-02  5.6234159E-02  0.3754176       28.15829    
  5.6234159E-02  6.3095763E-02  0.3562774       27.48499    
  6.3095763E-02  7.0794620E-02  0.2886518       29.64476    
  7.0794620E-02  7.9432867E-02  0.1901259       34.34785    
  7.9432867E-02  8.9125134E-02  0.1056156       42.13755    
  8.9125134E-02  0.1000001      0.1743263       33.92727    
  0.1000001      0.1122019      6.6222869E-02   48.43108    
  0.1122019      0.1258926      7.7615418E-02   44.46569    
  0.1258926      0.1412538      7.0599809E-02   42.15383    
  0.1412538      0.1584894      1.1813011E-02   62.26552    
  0.1584894      0.1778280      4.5536991E-02   46.92435    
  0.1778280      0.1995264      6.6863343E-02   37.46968    
  0.1995264      0.2238722      1.7685238E-02   70.20369    
  0.2238722      0.2511888      2.1781427E-04   99.00000    
  0.2511888      0.2818385      7.1217939E-03   99.00000    
  0.2818385      0.3162280      1.2901952E-02   63.87161    
  0.3162280      0.3548136      3.3298826E-03   99.00000    
  0.3548136      0.3981074       0.000000       0.000000    
  0.3981074      0.4466839      3.4557646E-03   99.00000    
  0.4466839      0.5011876       0.000000       0.000000    
  0.5011876      0.5623417       0.000000       0.000000    
  0.5623417      0.6309578       0.000000       0.000000    
  0.6309578      0.7079462       0.000000       0.000000    
  0.7079462      0.7943288       0.000000       0.000000    
  0.7943288      0.8912516       0.000000       0.000000    
  0.8912516       1.000001       0.000000       0.000000    
   1.000001       1.122019       0.000000       0.000000    
   1.122019       1.258926       0.000000       0.000000    
   1.258926       1.412539       0.000000       0.000000    
   1.412539       1.584894       0.000000       0.000000    
   1.584894       1.778281       0.000000       0.000000    
   1.778281       1.995264       0.000000       0.000000    
   1.995264       2.238723       0.000000       0.000000    
   2.238723       2.511888       0.000000       0.000000    
   2.511888       2.818385       0.000000       0.000000    
   2.818385       3.162280       0.000000       0.000000    
   3.162280       3.548136       0.000000       0.000000    
   3.548136       3.981075       0.000000       0.000000    
   3.981075       4.466839       0.000000       0.000000    
   4.466839       5.011876       0.000000       0.000000    
   5.011876       5.623418       0.000000       0.000000    
   5.623418       6.309578       0.000000       0.000000    
   6.309578       7.079463       0.000000       0.000000    
   7.079463       7.943289       0.000000       0.000000    
   7.943289       8.912516       0.000000       0.000000    
   8.912516       10.00001       0.000000       0.000000    


 # Detector n:            6   nsDG7     
 # N. of energy intervals         260
  1.0000100E-14  2.0000000E-13  3.5972941E+09   53.70763    
  2.0000000E-13  2.9297300E-13  1.6451059E+09   59.57778    
  2.9297300E-13  4.2916701E-13  3.3707904E+09   61.44201    
  4.2916701E-13  6.2867300E-13  7.9494897E+09   32.93434    
  6.2867300E-13  9.2092198E-13  1.3523492E+10   19.96167    
  9.2092198E-13  1.3490300E-12  2.6003372E+10   13.15817    
  1.3490300E-12  1.9761499E-12  2.5559691E+10   10.34895    
  1.9761499E-12  2.8947901E-12  4.0980902E+10   7.148379    
  2.8947901E-12  4.2404799E-12  5.5110435E+10   5.208631    
  4.2404799E-12  6.2117499E-12  8.7422738E+10   3.178655    
  6.2117499E-12  9.0993801E-12  1.1467987E+11   2.357683    
  9.0993801E-12  1.3329400E-11  1.5653570E+11   1.716074    
  1.3329400E-11  1.9525799E-11  1.9180459E+11   1.278289    
  1.9525799E-11  2.8602700E-11  2.2480894E+11  0.9667913    
  2.8602700E-11  4.1899099E-11  2.2760735E+11  0.7916414    
  4.1899099E-11  6.1376598E-11  1.9029826E+11  0.7216191    
  6.1376598E-11  8.9908601E-11  1.2554233E+11  0.7661266    
  8.9908601E-11  1.3170399E-10  6.0351771E+10  0.8883227    
  1.3170399E-10  1.9292901E-10  2.5079034E+10   1.135854    
  1.9292901E-10  2.8261499E-10  1.1541428E+10   1.397612    
  2.8261499E-10  4.1399401E-10  7.0542484E+09   1.471943    
  4.1399401E-10  5.3157900E-10  5.1321236E+09   1.804454    
  5.3157900E-10  6.2506200E-10  3.8738964E+09   2.343207    
  6.2506200E-10  6.8256001E-10  3.4731817E+09   3.041591    
  6.8256001E-10  8.3368101E-10  3.1117763E+09   2.039405    
  8.3368101E-10  8.7642499E-10  2.5863877E+09   4.227236    
  8.7642499E-10  1.1253500E-09  2.2940209E+09   1.827028    
  1.1253500E-09  1.4449800E-09  1.8297161E+09   1.804474    
  1.4449800E-09  1.8553900E-09  1.4132078E+09   1.811361    
  1.8553900E-09  2.3823701E-09  1.0974052E+09   1.858432    
  2.3823701E-09  3.0590199E-09  8.8871296E+08   1.834563    
  3.0590199E-09  3.9278598E-09  6.9455462E+08   1.781073    
  3.9278598E-09  5.0434799E-09  5.2392195E+08   1.860792    
  5.0434799E-09  6.4759500E-09  4.2844019E+08   1.793124    
  6.4759500E-09  8.3152898E-09  3.3822253E+08   1.793792    
  8.3152898E-09  1.0677000E-08  2.6388456E+08   1.731969    
  1.0677000E-08  1.3709600E-08  2.0896800E+08   1.733279    
  1.3709600E-08  1.7603501E-08  1.6550206E+08   1.712010    
  1.7603501E-08  2.2603301E-08  1.3033464E+08   1.704836    
  2.2603301E-08  2.9023200E-08  1.0240687E+08   1.715222    
  2.9023200E-08  3.7266499E-08  8.1738416E+07   1.673647    
  3.7266499E-08  4.7851199E-08  6.4640056E+07   1.713676    
  4.7851199E-08  6.1442101E-08  5.1964500E+07   1.675657    
  6.1442101E-08  7.8893301E-08  3.8961988E+07   1.710434    
  7.8893301E-08  1.0130100E-07  3.0689108E+07   1.664157    
  1.0130100E-07  1.3007300E-07  2.4170296E+07   1.685255    
  1.3007300E-07  1.6701701E-07  1.8468146E+07   1.709138    
  1.6701701E-07  2.1445400E-07  1.4697147E+07   1.654940    
  2.1445400E-07  2.7536399E-07  1.1607277E+07   1.667837    
  2.7536399E-07  3.5357499E-07   9215419.       1.643838    
  3.5357499E-07  4.5399901E-07   6831104.       1.653616    
  4.5399901E-07  5.8294700E-07   5552926.       1.605830    
  5.8294700E-07  7.4851800E-07   4385894.       1.594407    
  7.4851800E-07  9.6111603E-07   3420872.       1.627544    
  9.6111603E-07  1.2341000E-06   2676528.       1.595686    
  1.2341000E-06  1.3638900E-06   2329649.       2.492935    
  1.3638900E-06  1.5073300E-06   2140691.       2.461462    
  1.5073300E-06  1.5846100E-06   2132776.       3.359649    
  1.5846100E-06  1.6658601E-06   1976209.       3.355697    
  1.6658601E-06  1.8410600E-06   1758760.       2.501136    
  1.8410600E-06  2.0346799E-06   1689038.       2.469215    
  2.0346799E-06  2.2486699E-06   1499214.       2.461639    
  2.2486699E-06  2.4851699E-06   1322737.       2.389310    
  2.4851699E-06  2.6125899E-06   1296948.       3.419615    
  2.6125899E-06  2.7465401E-06   1064500.       3.664978    
  2.7465401E-06  2.8634900E-06   919881.8       4.078225    
  2.8634900E-06  3.0353899E-06   915157.1       3.360453    
  3.0353899E-06  3.3546301E-06   921015.7       2.542903    
  3.3546301E-06  3.7074401E-06   870849.2       2.408308    
  3.7074401E-06  4.0973500E-06   806912.2       2.422401    
  4.0973500E-06  4.3074201E-06   729198.1       3.533586    
  4.3074201E-06  4.5282700E-06   717420.6       3.363531    
  4.5282700E-06  5.0045101E-06   657358.5       2.387039    
  5.0045101E-06  5.5308401E-06   596294.0       2.514599    
  5.5308401E-06  6.2672698E-06   517160.1       2.195697    
  6.2672698E-06  7.1017398E-06   447729.8       2.220119    
  7.1017398E-06  8.0473301E-06   391858.0       2.290373    
  8.0473301E-06  9.1188203E-06   354494.2       2.217699    
  9.1188203E-06  1.0333000E-05   336540.7       2.109295    
  1.0333000E-05  1.1708800E-05   310010.6       2.105018    
  1.1708800E-05  1.3267800E-05   269731.5       2.108650    
  1.3267800E-05  1.5034400E-05   251656.3       2.034471    
  1.5034400E-05  1.7036200E-05   221086.0       2.006242    
  1.7036200E-05  1.9304500E-05   220513.8       1.911455    
  1.9304500E-05  2.1334799E-05   214384.2       2.014388    
  2.1334799E-05  2.1874899E-05   185638.8       4.294908    
  2.1874899E-05  2.3578599E-05   195761.1       2.307618    
  2.3578599E-05  2.4175501E-05   224617.5       3.685770    
  2.4175501E-05  2.4787500E-05   301996.9       3.302989    
  2.4787500E-05  2.6058400E-05   202016.1       2.702377    
  2.6058400E-05  2.8087899E-05   115326.3       2.800994    
  2.8087899E-05  3.1827800E-05   99158.27       2.315456    
  3.1827800E-05  3.4306700E-05   99388.64       2.873791    
  3.4306700E-05  3.5175199E-05   89658.70       5.032400    
  3.5175199E-05  3.6065601E-05   90235.28       4.806623    
  3.6065601E-05  4.0867701E-05   90744.44       2.053364    
  4.0867701E-05  4.6309200E-05   86229.68       2.003254    
  4.6309200E-05  5.2475199E-05   87328.38       1.888755    
  5.2475199E-05  5.6562199E-05   67508.90       2.642186    
  5.6562199E-05  5.9462200E-05   67109.90       3.059076    
  5.9462200E-05  6.2510902E-05   70712.66       2.983454    
  6.2510902E-05  6.7379500E-05   65122.17       2.475168    
  6.7379500E-05  7.6350902E-05   61513.05       1.839237    
  7.6350902E-05  8.6516899E-05   58222.83       1.790108    
  8.6516899E-05  9.8036500E-05   50812.70       1.782805    
  9.8036500E-05  1.1109000E-04   48144.06       1.754074    
  1.1109000E-04  1.1678600E-04   48613.05       2.652432    
  1.1678600E-04  1.2277300E-04   49234.94       2.570450    
  1.2277300E-04  1.2906799E-04   54630.53       2.369098    
  1.2906799E-04  1.3568600E-04   41209.37       2.583893    
  1.3568600E-04  1.4264201E-04   38724.22       2.641633    
  1.4264201E-04  1.4995600E-04   35103.76       2.765566    
  1.4995600E-04  1.5764400E-04   39926.93       2.489904    
  1.5764400E-04  1.6163501E-04   43136.89       3.387664    
  1.6163501E-04  1.6572700E-04   44259.75       3.261232    
  1.6572700E-04  1.6992200E-04   37184.68       3.508148    
  1.6992200E-04  1.7422400E-04   34902.07       3.673645    
  1.7422400E-04  1.8315599E-04   38934.85       2.429553    
  1.8315599E-04  1.9254700E-04   28609.62       2.686130    
  1.9254700E-04  2.0241900E-04   28648.43       2.621580    
  2.0241900E-04  2.1279699E-04   30504.07       2.528367    
  2.1279699E-04  2.2370800E-04   28413.36       2.468504    
  2.2370800E-04  2.3517800E-04   29929.92       2.357794    
  2.3517800E-04  2.4723500E-04   30759.60       2.223795    
  2.4723500E-04  2.5991100E-04   27059.74       2.335888    
  2.5991100E-04  2.7323700E-04   29280.81       2.249428    
  2.7323700E-04  2.8015400E-04   24512.03       3.402569    
  2.8015400E-04  2.8724599E-04   24061.93       3.293649    
  2.8724599E-04  2.9451799E-04   23419.31       3.341070    
  2.9451799E-04  3.0197401E-04   30178.85       2.920604    
  3.0197401E-04  3.0961799E-04   32918.61       2.794262    
  3.0961799E-04  3.1745600E-04   28920.82       2.764903    
  3.1745600E-04  3.3373301E-04   19808.73       2.375364    
  3.3373301E-04  3.5084400E-04   21129.92       2.319345    
  3.5084400E-04  3.6883200E-04   16645.83       2.567189    
  3.6883200E-04  3.8774201E-04   14532.84       2.642967    
  3.8774201E-04  4.0762199E-04   12099.64       2.743972    
  4.0762199E-04  4.2852099E-04   10820.39       2.836162    
  4.2852099E-04  4.5049199E-04   10432.65       2.907101    
  4.5049199E-04  4.7358900E-04   13798.51       2.438830    
  4.7358900E-04  4.9787102E-04   15283.06       2.245692    
  4.9787102E-04  5.1047403E-04   16277.77       3.118011    
  5.1047403E-04  5.2339700E-04   15060.66       3.053775    
  5.2339700E-04  5.3664698E-04   16269.50       2.912283    
  5.3664698E-04  5.5023201E-04   15133.57       3.064785    
  5.5023201E-04  5.7844300E-04   15058.80       2.152150    
  5.7844300E-04  6.0810102E-04   15871.59       2.020748    
  6.0810102E-04  6.3927902E-04   15938.23       1.956948    
  6.3927902E-04  6.7205500E-04   14279.17       2.025643    
  6.7205500E-04  7.0651202E-04   12731.35       2.058067    
  7.0651202E-04  7.4273598E-04   12564.14       2.079379    
  7.4273598E-04  7.8081700E-04   11813.11       2.112565    
  7.8081700E-04  8.2085002E-04   11527.22       2.088448    
  8.2085002E-04  8.6293602E-04   10215.22       2.140453    
  8.6293602E-04  9.0717903E-04   8310.523       2.271269    
  9.0717903E-04  9.5369201E-04   7167.843       2.395458    
  9.5369201E-04  9.6163998E-04   6997.112       6.002286    
  9.6163998E-04  9.7783399E-04   5129.073       4.809125    
  9.7783399E-04  1.0025901E-03   5036.271       3.935038    
  1.0025901E-03  1.0539900E-03   4696.283       2.871869    
  1.0539900E-03  1.1080300E-03   5442.242       2.605773    
  1.1080300E-03  1.1648400E-03   5949.850       2.372669    
  1.1648400E-03  1.1943300E-03   6574.151       3.222701    
  1.1943300E-03  1.2245600E-03   6381.443       3.205808    
  1.2245600E-03  1.2873500E-03   5756.475       2.327301    
  1.2873500E-03  1.3533500E-03   4359.413       2.578444    
  1.3533500E-03  1.4227401E-03   5284.302       2.324269    
  1.4227401E-03  1.4956900E-03   5250.184       2.237273    
  1.4956900E-03  1.5335500E-03   4708.725       3.394233    
  1.5335500E-03  1.5723699E-03   4153.416       3.447210    
  1.5723699E-03  1.6121800E-03   4087.926       3.393110    
  1.6121800E-03  1.6529900E-03   3537.450       3.651766    
  1.6529900E-03  1.7377400E-03   3855.407       2.488957    
  1.7377400E-03  1.8268300E-03   4069.765       2.322730    
  1.8268300E-03  1.8730800E-03   2906.343       3.868918    
  1.8730800E-03  1.9205000E-03   2978.789       3.724908    
  1.9205000E-03  1.9691200E-03   2861.775       3.692691    
  1.9691200E-03  2.0189700E-03   3094.002       3.536000    
  2.0189700E-03  2.1224800E-03   3275.360       2.317627    
  2.1224800E-03  2.2313001E-03   3456.151       2.294501    
  2.2313001E-03  2.2688799E-03   3804.015       3.699206    
  2.2688799E-03  2.3068599E-03   3898.383       3.726179    
  2.3068599E-03  2.3457000E-03   4104.915       3.444634    
  2.3457000E-03  2.3652499E-03   4594.659       4.514848    
  2.3652499E-03  2.3852000E-03   4369.387       4.778039    
  2.3852000E-03  2.4251300E-03   3734.586       3.531654    
  2.4251300E-03  2.4659701E-03   3367.232       3.733524    
  2.4659701E-03  2.5923999E-03   2956.873       2.266694    
  2.5923999E-03  2.7253199E-03   2815.073       2.278595    
  2.7253199E-03  2.8650500E-03   2270.103       2.476547    
  2.8650500E-03  3.0119400E-03   1878.393       2.638925    
  3.0119400E-03  3.0881900E-03   1722.574       3.794802    
  3.0881900E-03  3.1663701E-03   1710.867       3.767921    
  3.1663701E-03  3.2465300E-03   1312.656       4.262993    
  3.2465300E-03  3.3287101E-03   1335.118       4.134285    
  3.3287101E-03  3.4993801E-03   1070.388       3.360600    
  3.4993801E-03  3.6787901E-03   999.1911       3.163872    
  3.6787901E-03  3.8674099E-03   900.4041       3.586360    
  3.8674099E-03  4.0656999E-03   991.3791       3.127324    
  4.0656999E-03  4.2741499E-03   1044.188       3.022055    
  4.2741499E-03  4.4932901E-03   757.1752       3.380988    
  4.4932901E-03  4.6070400E-03   787.0540       4.642125    
  4.6070400E-03  4.7236700E-03   829.3934       4.458447    
  4.7236700E-03  4.8432499E-03   970.2182       4.008473    
  4.8432499E-03  4.9658502E-03   765.1453       4.538508    
  4.9658502E-03  5.2204598E-03   696.5972       3.268446    
  5.2204598E-03  5.4881200E-03   652.3940       3.231345    
  5.4881200E-03  5.7695000E-03   518.4354       3.698468    
  5.7695000E-03  5.9155500E-03   501.9052       5.163000    
  5.9155500E-03  6.0653100E-03   505.1562       5.100296    
  6.0653100E-03  6.2188501E-03   482.3893       5.096295    
  6.2188501E-03  6.3762800E-03   481.5021       5.143286    
  6.3762800E-03  6.5377001E-03   492.3512       4.939740    
  6.5377001E-03  6.5923799E-03   470.2142       8.519979    
  6.5923799E-03  6.6475999E-03   493.0705       8.428801    
  6.6475999E-03  6.7031998E-03   421.7611       9.042486    
  6.7031998E-03  6.8728901E-03   372.8014       5.616975    
  6.8728901E-03  7.0468802E-03   379.0297       5.319756    
  7.0468802E-03  7.2252699E-03   318.0894       5.836510    
  7.2252699E-03  7.4081798E-03   287.7616       6.145092    
  7.4081798E-03  7.5957198E-03   316.8083       5.681647    
  7.5957198E-03  7.7880099E-03   287.5378       5.878801    
  7.7880099E-03  7.9851598E-03   237.9461       6.472521    
  7.9851598E-03  8.1873098E-03   304.2055       5.562733    
  8.1873098E-03  8.3945701E-03   268.3666       5.810484    
  8.3945701E-03  8.6070802E-03   267.2377       5.929264    
  8.6070802E-03  8.8249696E-03   258.6061       5.818678    
  8.8249696E-03  9.0483697E-03   257.0656       5.990576    
  9.0483697E-03  9.2774397E-03   233.9062       5.964137    
  9.2774397E-03  9.5122904E-03   237.1691       6.036130    
  9.5122904E-03  9.7530996E-03   219.1584       6.063992    
  9.7530996E-03  9.9999998E-03   178.4844       6.713351    
  9.9999998E-03  1.0253200E-02   177.7652       6.436266    
  1.0253200E-02  1.0512700E-02   173.3068       6.557532    
  1.0512700E-02  1.0778800E-02   214.2267       5.834180    
  1.0778800E-02  1.1051700E-02   205.8176       5.957088    
  1.1051700E-02  1.1331500E-02   164.5550       6.476558    
  1.1331500E-02  1.1618300E-02   157.9052       6.423119    
  1.1618300E-02  1.1912500E-02   154.3630       6.875480    
  1.1912500E-02  1.2214000E-02   182.1057       5.842941    
  1.2214000E-02  1.2523200E-02   151.5922       6.660553    
  1.2523200E-02  1.2840200E-02   159.0505       6.273381    
  1.2840200E-02  1.3165300E-02   154.1109       6.567559    
  1.3165300E-02  1.3498600E-02   137.9450       6.530463    
  1.3498600E-02  1.3840300E-02   167.8174       5.880805    
  1.3840300E-02  1.4190700E-02   149.2116       6.109472    
  1.4190700E-02  1.4549900E-02   123.1721       6.760527    
  1.4549900E-02  1.4918300E-02   135.8011       6.182707    
  1.4918300E-02  1.5295900E-02   124.8402       6.310628    
  1.5295900E-02  1.5683100E-02   130.1677       6.230491    
  1.5683100E-02  1.6080100E-02   131.1945       6.053320    
  1.6080100E-02  1.6487200E-02   138.5950       5.915196    
  1.6487200E-02  1.6904600E-02   130.1660       6.166135    
  1.6904600E-02  1.7332500E-02   127.8232       5.976056    
  1.7332500E-02  1.7771300E-02   113.0553       6.352059    
  1.7771300E-02  1.8221200E-02   123.4713       5.886692    
  1.8221200E-02  1.8682500E-02   109.7786       6.129334    
  1.8682500E-02  1.9155400E-02   112.6361       5.823846    
  1.9155400E-02  1.9640300E-02   101.4732       6.764962    
  1.9640300E-02  2.0000000E-02   106.5530       6.961669    


 # Detector n:            7   nfDG7     
 # N. of energy intervals         120
  2.0000000E-02  2.1063058E-02   111.9149       4.074336    
  2.1063058E-02  2.2182621E-02   106.1712       4.091567    
  2.2182621E-02  2.3361692E-02   102.8232       4.013556    
  2.3361692E-02  2.4603436E-02   103.2925       3.922436    
  2.4603436E-02  2.5911180E-02   100.3135       3.834051    
  2.5911180E-02  2.7288437E-02   97.21670       3.881077    
  2.7288437E-02  2.8738894E-02   98.58166       3.770453    
  2.8738894E-02  3.0266454E-02   95.32117       3.687298    
  3.0266454E-02  3.1875204E-02   98.31679       3.548408    
  3.1875204E-02  3.3569463E-02   92.29078       3.604526    
  3.3569463E-02  3.5353780E-02   86.74760       3.639991    
  3.5353780E-02  3.7232935E-02   88.17347       3.383914    
  3.7232935E-02  3.9211977E-02   90.33392       3.238868    
  3.9211977E-02  4.1296210E-02   88.52766       3.221513    
  4.1296210E-02  4.3491218E-02   92.00643       3.175447    
  4.3491218E-02  4.5802910E-02   88.38842       3.105754    
  4.5802910E-02  4.8237469E-02   89.88222       3.015541    
  4.8237469E-02  5.0801434E-02   86.39391       3.010826    
  5.0801434E-02  5.3501677E-02   86.89740       2.900332    
  5.3501677E-02  5.6345452E-02   81.09721       2.899840    
  5.6345452E-02  5.9340376E-02   86.06498       2.735369    
  5.9340376E-02  6.2494490E-02   79.98351       2.738561    
  6.2494490E-02  6.5816253E-02   78.41810       2.799403    
  6.5816253E-02  6.9314592E-02   76.94241       2.736113    
  6.9314592E-02  7.2998859E-02   73.88309       2.707009    
  7.2998859E-02  7.6878957E-02   72.98428       2.639742    
  7.6878957E-02  8.0965310E-02   69.00214       2.584573    
  8.0965310E-02  8.5268848E-02   62.78197       2.712120    
  8.5268848E-02  8.9801140E-02   63.54213       2.632303    
  8.9801140E-02  9.4574332E-02   59.60535       2.674708    
  9.4574332E-02  9.9601232E-02   53.97798       2.666600    
  9.9601232E-02  0.1048953       52.56789       2.661162    
  0.1048953      0.1104708       48.11233       2.748355    
  0.1104708      0.1163427       43.73127       2.823132    
  0.1163427      0.1225266       42.13827       2.718702    
  0.1225266      0.1290393       38.15823       2.841617    
  0.1290393      0.1358981       36.00930       2.817607    
  0.1358981      0.1431215       33.07701       2.875535    
  0.1431215      0.1507288       29.68354       3.025135    
  0.1507288      0.1587405       27.78075       3.014065    
  0.1587405      0.1671780       23.47736       3.129100    
  0.1671780      0.1760640       21.31510       3.122902    
  0.1760640      0.1854223       18.78868       3.431466    
  0.1854223      0.1952781       15.61245       3.599031    
  0.1952781      0.2056577       13.90638       3.723332    
  0.2056577      0.2165890       11.90328       3.907925    
  0.2165890      0.2281013       9.419914       4.348835    
  0.2281013      0.2402256       7.979811       4.504825    
  0.2402256      0.2529943       6.983251       4.841665    
  0.2529943      0.2664417       5.127563       5.563324    
  0.2664417      0.2806039       4.804504       5.459199    
  0.2806039      0.2955188       3.321377       6.274158    
  0.2955188      0.3112265       2.945198       6.527425    
  0.3112265      0.3277690       2.365397       7.217999    
  0.3277690      0.3451909       1.480068       8.932366    
  0.3451909      0.3635389       1.524657       8.419289    
  0.3635389      0.3828620      0.9577848       10.34835    
  0.3828620      0.4032122      0.6797289       12.00858    
  0.4032122      0.4246442      0.6909077       11.18724    
  0.4246442      0.4472153      0.5929530       12.24525    
  0.4472153      0.4709860      0.4440497       14.08928    
  0.4709860      0.4960204      0.3124675       16.04735    
  0.4960204      0.5223852      0.2126656       18.76062    
  0.5223852      0.5501516      0.1014660       25.16611    
  0.5501516      0.5793938      0.1600289       20.65409    
  0.5793938      0.6101903      9.5462784E-02   25.00109    
  0.6101903      0.6426237      5.2786976E-02   33.49654    
  0.6426237      0.6767811      5.2430790E-02   32.63622    
  0.6767811      0.7127540      5.5959575E-02   31.00395    
  0.7127540      0.7506390      4.7482342E-02   33.00364    
  0.7506390      0.7905375      2.9044937E-02   41.50992    
  0.7905375      0.8325570      2.7377527E-02   40.33008    
  0.8325570      0.8768098      1.2415645E-02   58.88497    
  0.8768098      0.9234148      7.0191883E-03   73.56745    
  0.9234148      0.9724970      9.2610829E-03   70.31125    
  0.9724970       1.024188       0.000000       0.000000    
   1.024188       1.078627      8.7929536E-03   64.00024    
   1.078627       1.135959      2.9489882E-03   99.00000    
   1.135959       1.196338      7.0802653E-03   64.29982    
   1.196338       1.259927       0.000000       0.000000    
   1.259927       1.326896       0.000000       0.000000    
   1.326896       1.397425      2.1211589E-03   99.00000    
   1.397425       1.471702       0.000000       0.000000    
   1.471702       1.549927       0.000000       0.000000    
   1.549927       1.632310       0.000000       0.000000    
   1.632310       1.719072       0.000000       0.000000    
   1.719072       1.810446       0.000000       0.000000    
   1.810446       1.906677       0.000000       0.000000    
   1.906677       2.008022       0.000000       0.000000    
   2.008022       2.114754       0.000000       0.000000    
   2.114754       2.227160       0.000000       0.000000    
   2.227160       2.345540       0.000000       0.000000    
   2.345540       2.470212       0.000000       0.000000    
   2.470212       2.601511       0.000000       0.000000    
   2.601511       2.739789       0.000000       0.000000    
   2.739789       2.885417       0.000000       0.000000    
   2.885417       3.038786       0.000000       0.000000    
   3.038786       3.200306       0.000000       0.000000    
   3.200306       3.370412       0.000000       0.000000    
   3.370412       3.549559       0.000000       0.000000    
   3.549559       3.738229       0.000000       0.000000    
   3.738229       3.936927       0.000000       0.000000    
   3.936927       4.146185       0.000000       0.000000    
   4.146185       4.366568       0.000000       0.000000    
   4.366568       4.598663       0.000000       0.000000    
   4.598663       4.843096       0.000000       0.000000    
   4.843096       5.100521       0.000000       0.000000    
   5.100521       5.371628       0.000000       0.000000    
   5.371628       5.657146       0.000000       0.000000    
   5.657146       5.957840       0.000000       0.000000    
   5.957840       6.274517       0.000000       0.000000    
   6.274517       6.608026       0.000000       0.000000    
   6.608026       6.959262       0.000000       0.000000    
   6.959262       7.329167       0.000000       0.000000    
   7.329167       7.718733       0.000000       0.000000    
   7.718733       8.129007       0.000000       0.000000    
   8.129007       8.561088       0.000000       0.000000    
   8.561088       9.016134       0.000000       0.000000    
   9.016134       9.495368       0.000000       0.000000    
   9.495368       10.00008       0.000000       0.000000    
