 # Detector n:            1   pipDG5    
 # N. of energy intervals         120
  9.9999997E-06  1.1220184E-05   0.000000       0.000000    
  1.1220184E-05  1.2589254E-05   0.000000       0.000000    
  1.2589254E-05  1.4125375E-05   0.000000       0.000000    
  1.4125375E-05  1.5848931E-05   0.000000       0.000000    
  1.5848931E-05  1.7782793E-05   0.000000       0.000000    
  1.7782793E-05  1.9952624E-05   0.000000       0.000000    
  1.9952624E-05  2.2387210E-05   0.000000       0.000000    
  2.2387210E-05  2.5118865E-05   0.000000       0.000000    
  2.5118865E-05  2.8183831E-05   0.000000       0.000000    
  2.8183831E-05  3.1622778E-05   0.000000       0.000000    
  3.1622778E-05  3.5481338E-05   0.000000       0.000000    
  3.5481338E-05  3.9810719E-05   0.000000       0.000000    
  3.9810719E-05  4.4668363E-05   0.000000       0.000000    
  4.4668363E-05  5.0118728E-05  7.6297060E-02   70.20300    
  5.0118728E-05  5.6234134E-05   0.000000       0.000000    
  5.6234134E-05  6.3095737E-05   0.000000       0.000000    
  6.3095737E-05  7.0794587E-05   0.000000       0.000000    
  7.0794587E-05  7.9432837E-05   0.000000       0.000000    
  7.9432837E-05  8.9125104E-05   0.000000       0.000000    
  8.9125104E-05  1.0000000E-04  8.0013349E-05   99.00000    
  1.0000000E-04  1.1220186E-04  4.8420504E-03   70.20333    
  1.1220186E-04  1.2589256E-04  9.4746705E-03   74.49383    
  1.2589256E-04  1.4125377E-04  6.8557942E-03   70.24818    
  1.4125377E-04  1.5848935E-04  7.3419823E-03   70.23110    
  1.5848935E-04  1.7782798E-04  1.2452971E-02   74.40463    
  1.7782798E-04  1.9952627E-04  4.5235157E-03   99.00000    
  1.9952627E-04  2.2387214E-04  9.3020564E-03   70.24153    
  2.2387214E-04  2.5118867E-04  1.6057150E-02   73.79353    
  2.5118867E-04  2.8183835E-04  5.8303350E-03   99.00000    
  2.8183835E-04  3.1622782E-04  1.1716930E-02   70.20391    
  3.1622782E-04  3.5481344E-04  1.2595424E-02   70.20486    
  3.5481344E-04  3.9810725E-04  2.1685207E-02   74.65372    
  3.9810725E-04  4.4668367E-04  1.5896581E-02   70.28573    
  4.4668367E-04  5.0118734E-04  1.7196864E-02   70.27703    
  5.0118734E-04  5.6234142E-04  1.8374370E-02   70.24869    
  5.6234142E-04  6.3095748E-04  3.0704081E-02   74.36989    
  6.3095748E-04  7.0794590E-04  2.2822136E-02   70.30467    
  7.0794590E-04  7.9432846E-04  2.5454124E-02   70.39985    
  7.9432846E-04  8.9125114E-04  2.7947666E-02   70.35001    
  8.9125114E-04  1.0000003E-03  1.4349353E-02   99.00000    
  1.0000003E-03  1.1220188E-03  5.1244430E-02   70.51174    
  1.1220188E-03  1.2589258E-03  5.8236193E-02   51.57971    
  1.2589258E-03  1.4125380E-03  9.3684457E-02   51.64679    
  1.4125380E-03  1.5848936E-03  8.8082120E-02   49.62764    
  1.5848936E-03  1.7782800E-03  8.6137690E-02   50.23672    
  1.7782800E-03  1.9952629E-03  0.1309126       53.01847    
  1.9952629E-03  2.2387218E-03  0.1144722       47.57767    
  2.2387218E-03  2.5118871E-03  0.1861471       42.51877    
  2.5118871E-03  2.8183837E-03  0.1423711       50.67446    
  2.8183837E-03  3.1622786E-03  0.1289891       49.95195    
  3.1622786E-03  3.5481353E-03  0.1732215       50.96858    
  3.5481353E-03  3.9810729E-03  0.1106349       57.25404    
  3.9810729E-03  4.4668377E-03  8.8227339E-02   61.19480    
  4.4668377E-03  5.0118743E-03  0.1055693       71.81934    
  5.0118743E-03  5.6234146E-03  9.3550153E-02   76.03281    
  5.6234146E-03  6.3095763E-03  0.1005022       78.67234    
  6.3095763E-03  7.0794607E-03  0.1847332       54.33065    
  7.0794607E-03  7.9432856E-03  0.5183804       35.93001    
  7.9432856E-03  8.9125130E-03  0.1128813       51.83429    
  8.9125130E-03  1.0000004E-02  0.2481534       51.52788    
  1.0000004E-02  1.1220189E-02  0.1374086       57.34362    
  1.1220189E-02  1.2589260E-02  0.1944105       52.28600    
  1.2589260E-02  1.4125382E-02  7.1976945E-02   50.87458    
  1.4125382E-02  1.5848938E-02  0.2814288       38.88226    
  1.5848938E-02  1.7782802E-02  0.3527946       32.48372    
  1.7782802E-02  1.9952632E-02  0.3518565       33.42308    
  1.9952632E-02  2.2387221E-02  0.4377128       26.77896    
  2.2387221E-02  2.5118876E-02  0.4270056       24.47620    
  2.5118876E-02  2.8183842E-02  0.4532725       24.61279    
  2.8183842E-02  3.1622794E-02  0.4405848       24.34229    
  3.1622794E-02  3.5481352E-02  0.3099473       25.91232    
  3.5481352E-02  3.9810736E-02  0.5389356       18.92750    
  3.9810736E-02  4.4668384E-02  0.4957061       19.18788    
  4.4668384E-02  5.0118748E-02  0.4759786       17.92255    
  5.0118748E-02  5.6234159E-02  0.6589643       15.15482    
  5.6234159E-02  6.3095763E-02  0.7056602       14.08232    
  6.3095763E-02  7.0794620E-02  0.6229531       13.76550    
  7.0794620E-02  7.9432867E-02  0.4923392       14.32323    
  7.9432867E-02  8.9125134E-02  0.5612800       12.57553    
  8.9125134E-02  0.1000001      0.6266402       11.66127    
  0.1000001      0.1122019      0.6588141       10.43051    
  0.1122019      0.1258926      0.5722445       10.85685    
  0.1258926      0.1412538      0.5218372       10.50249    
  0.1412538      0.1584894      0.6322037       9.083015    
  0.1584894      0.1778280      0.6020444       9.270894    
  0.1778280      0.1995264      0.6253075       8.320793    
  0.1995264      0.2238722      0.5526385       8.350186    
  0.2238722      0.2511888      0.5264472       7.933651    
  0.2511888      0.2818385      0.4973904       7.749527    
  0.2818385      0.3162280      0.4442031       8.008142    
  0.3162280      0.3548136      0.3330046       8.227727    
  0.3548136      0.3981074      0.2386219       9.491511    
  0.3981074      0.4466839      0.1802941       10.09049    
  0.4466839      0.5011876      0.1359416       11.23018    
  0.5011876      0.5623417      0.1378707       10.27965    
  0.5623417      0.6309578      9.0841487E-02   12.52323    
  0.6309578      0.7079462      7.0670485E-02   13.51804    
  0.7079462      0.7943288      5.4192096E-02   13.97040    
  0.7943288      0.8912516      4.6263926E-02   14.24511    
  0.8912516       1.000001      4.1690197E-02   14.55956    
   1.000001       1.122019      5.0782967E-02   13.31363    
   1.122019       1.258926      2.9358398E-02   15.69471    
   1.258926       1.412539      2.4916846E-02   16.40142    
   1.412539       1.584894      2.2134798E-02   16.01475    
   1.584894       1.778281      2.0953337E-02   16.22869    
   1.778281       1.995264      1.7699923E-02   17.46968    
   1.995264       2.238723      1.0170584E-02   19.55328    
   2.238723       2.511888      1.1440265E-02   17.99289    
   2.511888       2.818385      9.7179683E-03   18.67515    
   2.818385       3.162280      9.0198349E-03   20.87881    
   3.162280       3.548136      5.5411793E-03   21.94102    
   3.548136       3.981075      5.7823160E-03   20.36059    
   3.981075       4.466839      3.0718031E-03   28.23919    
   4.466839       5.011876      3.6895096E-03   22.47466    
   5.011876       5.623418      2.7443822E-03   24.89615    
   5.623418       6.309578      1.8884700E-03   28.58389    
   6.309578       7.079463      1.1160922E-03   35.04507    
   7.079463       7.943289      8.6517830E-04   37.48857    
   7.943289       8.912516      4.0892363E-04   48.43446    
   8.912516       10.00001      1.2605742E-03   27.51887    


 # Detector n:            2   pimDG5    
 # N. of energy intervals         120
  9.9999997E-06  1.1220184E-05   0.000000       0.000000    
  1.1220184E-05  1.2589254E-05   0.000000       0.000000    
  1.2589254E-05  1.4125375E-05   0.000000       0.000000    
  1.4125375E-05  1.5848931E-05   0.000000       0.000000    
  1.5848931E-05  1.7782793E-05   0.000000       0.000000    
  1.7782793E-05  1.9952624E-05   0.000000       0.000000    
  1.9952624E-05  2.2387210E-05   0.000000       0.000000    
  2.2387210E-05  2.5118865E-05   0.000000       0.000000    
  2.5118865E-05  2.8183831E-05   0.000000       0.000000    
  2.8183831E-05  3.1622778E-05   0.000000       0.000000    
  3.1622778E-05  3.5481338E-05   0.000000       0.000000    
  3.5481338E-05  3.9810719E-05   0.000000       0.000000    
  3.9810719E-05  4.4668363E-05   0.000000       0.000000    
  4.4668363E-05  5.0118728E-05   0.000000       0.000000    
  5.0118728E-05  5.6234134E-05   0.000000       0.000000    
  5.6234134E-05  6.3095737E-05   0.000000       0.000000    
  6.3095737E-05  7.0794587E-05   0.000000       0.000000    
  7.0794587E-05  7.9432837E-05   0.000000       0.000000    
  7.9432837E-05  8.9125104E-05   0.000000       0.000000    
  8.9125104E-05  1.0000000E-04   0.000000       0.000000    
  1.0000000E-04  1.1220186E-04   0.000000       0.000000    
  1.1220186E-04  1.2589256E-04   0.000000       0.000000    
  1.2589256E-04  1.4125377E-04   0.000000       0.000000    
  1.4125377E-04  1.5848935E-04   0.000000       0.000000    
  1.5848935E-04  1.7782798E-04   0.000000       0.000000    
  1.7782798E-04  1.9952627E-04   0.000000       0.000000    
  1.9952627E-04  2.2387214E-04   0.000000       0.000000    
  2.2387214E-04  2.5118867E-04   0.000000       0.000000    
  2.5118867E-04  2.8183835E-04   0.000000       0.000000    
  2.8183835E-04  3.1622782E-04   0.000000       0.000000    
  3.1622782E-04  3.5481344E-04   0.000000       0.000000    
  3.5481344E-04  3.9810725E-04   0.000000       0.000000    
  3.9810725E-04  4.4668367E-04   0.000000       0.000000    
  4.4668367E-04  5.0118734E-04   0.000000       0.000000    
  5.0118734E-04  5.6234142E-04   0.000000       0.000000    
  5.6234142E-04  6.3095748E-04   0.000000       0.000000    
  6.3095748E-04  7.0794590E-04   0.000000       0.000000    
  7.0794590E-04  7.9432846E-04   0.000000       0.000000    
  7.9432846E-04  8.9125114E-04   0.000000       0.000000    
  8.9125114E-04  1.0000003E-03   0.000000       0.000000    
  1.0000003E-03  1.1220188E-03   0.000000       0.000000    
  1.1220188E-03  1.2589258E-03   0.000000       0.000000    
  1.2589258E-03  1.4125380E-03   0.000000       0.000000    
  1.4125380E-03  1.5848936E-03   0.000000       0.000000    
  1.5848936E-03  1.7782800E-03  3.0245436E-02   99.00000    
  1.7782800E-03  1.9952629E-03  2.7515678E-02   99.00000    
  1.9952629E-03  2.2387218E-03  9.9058356E-03   99.00000    
  2.2387218E-03  2.5118871E-03  4.6772785E-02   99.00000    
  2.5118871E-03  2.8183837E-03  1.1072652E-02   99.00000    
  2.8183837E-03  3.1622786E-03  3.8532171E-02   79.47608    
  3.1622786E-03  3.5481353E-03  2.8699787E-02   72.17973    
  3.5481353E-03  3.9810729E-03  1.9664042E-02   79.54539    
  3.9810729E-03  4.4668377E-03   0.000000       0.000000    
  4.4668377E-03  5.0118743E-03   0.000000       0.000000    
  5.0118743E-03  5.6234146E-03  2.2214983E-02   99.00000    
  5.6234146E-03  6.3095763E-03   0.000000       0.000000    
  6.3095763E-03  7.0794607E-03  7.8761149E-03   64.23062    
  7.0794607E-03  7.9432856E-03  0.2095165       50.87301    
  7.9432856E-03  8.9125130E-03  0.1974053       53.07444    
  8.9125130E-03  1.0000004E-02  4.0292621E-02   71.86094    
  1.0000004E-02  1.1220189E-02  0.2591965       43.02334    
  1.1220189E-02  1.2589260E-02  0.3518082       37.81973    
  1.2589260E-02  1.4125382E-02  0.1480515       61.31910    
  1.4125382E-02  1.5848938E-02  9.1133565E-02   55.03799    
  1.5848938E-02  1.7782802E-02  0.1552837       45.00648    
  1.7782802E-02  1.9952632E-02  0.1998704       47.61142    
  1.9952632E-02  2.2387221E-02  0.4119916       28.78354    
  2.2387221E-02  2.5118876E-02  0.4576115       25.97094    
  2.5118876E-02  2.8183842E-02  0.3339444       26.68226    
  2.8183842E-02  3.1622794E-02  0.3865861       25.81680    
  3.1622794E-02  3.5481352E-02  0.5431790       21.29383    
  3.5481352E-02  3.9810736E-02  0.5718465       19.74920    
  3.9810736E-02  4.4668384E-02  0.5457593       17.93981    
  4.4668384E-02  5.0118748E-02  0.4910235       17.30720    
  5.0118748E-02  5.6234159E-02  0.5892465       15.70509    
  5.6234159E-02  6.3095763E-02  0.6364973       14.21057    
  6.3095763E-02  7.0794620E-02  0.6335189       13.20495    
  7.0794620E-02  7.9432867E-02  0.6803375       12.71167    
  7.9432867E-02  8.9125134E-02  0.6051452       14.04455    
  8.9125134E-02  0.1000001      0.6834306       11.10609    
  0.1000001      0.1122019      0.5735661       11.31755    
  0.1122019      0.1258926      0.7184169       9.454032    
  0.1258926      0.1412538      0.7317329       9.370673    
  0.1412538      0.1584894      0.6128622       9.635836    
  0.1584894      0.1778280      0.6002759       8.565075    
  0.1778280      0.1995264      0.6136921       8.198242    
  0.1995264      0.2238722      0.4760188       9.303371    
  0.2238722      0.2511888      0.5883788       7.410071    
  0.2511888      0.2818385      0.4500954       7.997501    
  0.2818385      0.3162280      0.4933848       7.366007    
  0.3162280      0.3548136      0.2794629       8.818033    
  0.3548136      0.3981074      0.2031197       10.34352    
  0.3981074      0.4466839      0.1892473       9.871527    
  0.4466839      0.5011876      0.1499524       10.50751    
  0.5011876      0.5623417      0.1018100       12.27212    
  0.5623417      0.6309578      6.9663197E-02   13.54970    
  0.6309578      0.7079462      8.2382053E-02   12.28402    
  0.7079462      0.7943288      5.7581596E-02   13.70797    
  0.7943288      0.8912516      4.4507518E-02   15.22415    
  0.8912516       1.000001      3.1568062E-02   17.06739    
   1.000001       1.122019      2.5558388E-02   17.68135    
   1.122019       1.258926      2.6086351E-02   16.76841    
   1.258926       1.412539      3.1549986E-02   14.20874    
   1.412539       1.584894      3.5874460E-02   13.15783    
   1.584894       1.778281      1.9090299E-02   16.61244    
   1.778281       1.995264      1.2306658E-02   19.62161    
   1.995264       2.238723      1.5253213E-02   16.69633    
   2.238723       2.511888      1.1806091E-02   17.91126    
   2.511888       2.818385      7.1114609E-03   21.63978    
   2.818385       3.162280      5.5641187E-03   23.58317    
   3.162280       3.548136      5.2528875E-03   22.45458    
   3.548136       3.981075      4.3668761E-03   23.36810    
   3.981075       4.466839      3.3631281E-03   24.47833    
   4.466839       5.011876      4.3096137E-03   22.08413    
   5.011876       5.623418      3.1290743E-03   23.39011    
   5.623418       6.309578      7.8398129E-04   44.36463    
   6.309578       7.079463      1.2773494E-03   31.95674    
   7.079463       7.943289      1.7819918E-03   25.95976    
   7.943289       8.912516      1.0964208E-03   31.34871    
   8.912516       10.00001      6.9229299E-04   37.47486    


 # Detector n:            3   prDG5     
 # N. of energy intervals         120
  9.9999997E-06  1.1220184E-05  5.2171081E-02   99.00000    
  1.1220184E-05  1.2589254E-05   0.000000       0.000000    
  1.2589254E-05  1.4125375E-05   0.000000       0.000000    
  1.4125375E-05  1.5848931E-05   0.000000       0.000000    
  1.5848931E-05  1.7782793E-05   0.000000       0.000000    
  1.7782793E-05  1.9952624E-05   0.000000       0.000000    
  1.9952624E-05  2.2387210E-05   0.000000       0.000000    
  2.2387210E-05  2.5118865E-05   0.000000       0.000000    
  2.5118865E-05  2.8183831E-05   0.000000       0.000000    
  2.8183831E-05  3.1622778E-05   0.000000       0.000000    
  3.1622778E-05  3.5481338E-05   0.000000       0.000000    
  3.5481338E-05  3.9810719E-05   0.000000       0.000000    
  3.9810719E-05  4.4668363E-05   0.000000       0.000000    
  4.4668363E-05  5.0118728E-05   16.04024       4.419145    
  5.0118728E-05  5.6234134E-05  2.4859896E-02   99.00000    
  5.6234134E-05  6.3095737E-05   0.000000       0.000000    
  6.3095737E-05  7.0794587E-05   0.000000       0.000000    
  7.0794587E-05  7.9432837E-05   0.000000       0.000000    
  7.9432837E-05  8.9125104E-05  5.7307631E-03   99.00000    
  8.9125104E-05  1.0000000E-04  3.3617907E-03   12.20297    
  1.0000000E-04  1.1220186E-04  0.6641466       4.563052    
  1.1220186E-04  1.2589256E-04  0.6580169       4.585199    
  1.2589256E-04  1.4125377E-04  0.6729032       4.543224    
  1.4125377E-04  1.5848935E-04  0.6884050       4.566333    
  1.5848935E-04  1.7782798E-04  0.7321378       4.558469    
  1.7782798E-04  1.9952627E-04  0.7607800       4.561133    
  1.9952627E-04  2.2387214E-04  0.7936483       4.533076    
  2.2387214E-04  2.5118867E-04  0.8546835       4.583146    
  2.5118867E-04  2.8183835E-04  0.8978184       4.580657    
  2.8183835E-04  3.1622782E-04  0.9411945       4.523589    
  3.1622782E-04  3.5481344E-04   1.069181       4.578026    
  3.5481344E-04  3.9810725E-04   1.132545       4.572152    
  3.9810725E-04  4.4668367E-04   1.224076       4.599123    
  4.4668367E-04  5.0118734E-04   1.354535       4.630958    
  5.0118734E-04  5.6234142E-04   1.434510       4.623123    
  5.6234142E-04  6.3095748E-04   1.027757       5.364978    
  6.3095748E-04  7.0794590E-04   1.115898       5.419979    
  7.0794590E-04  7.9432846E-04   1.196003       5.373414    
  7.9432846E-04  8.9125114E-04   1.274822       5.414733    
  8.9125114E-04  1.0000003E-03   1.376829       5.434304    
  1.0000003E-03  1.1220188E-03   1.467106       5.457767    
  1.1220188E-03  1.2589258E-03   1.565818       5.602122    
  1.2589258E-03  1.4125380E-03   1.668312       5.635404    
  1.4125380E-03  1.5848936E-03   1.774080       5.668974    
  1.5848936E-03  1.7782800E-03   1.857705       5.718556    
  1.7782800E-03  1.9952629E-03   1.991620       5.778027    
  1.9952629E-03  2.2387218E-03   2.006263       5.810244    
  2.2387218E-03  2.5118871E-03   2.095860       6.011661    
  2.5118871E-03  2.8183837E-03   2.208631       6.088644    
  2.8183837E-03  3.1622786E-03   2.371440       6.319981    
  3.1622786E-03  3.5481353E-03   2.407216       6.424815    
  3.5481353E-03  3.9810729E-03   2.463005       6.735951    
  3.9810729E-03  4.4668377E-03   2.440591       6.854121    
  4.4668377E-03  5.0118743E-03   2.654157       6.964266    
  5.0118743E-03  5.6234146E-03   2.767037       7.249507    
  5.6234146E-03  6.3095763E-03   2.881035       7.363343    
  6.3095763E-03  7.0794607E-03   3.165830       7.409217    
  7.0794607E-03  7.9432856E-03   3.121709       7.494434    
  7.9432856E-03  8.9125130E-03   3.410595       7.352134    
  8.9125130E-03  1.0000004E-02   3.334440       7.440900    
  1.0000004E-02  1.1220189E-02   3.318877       7.460330    
  1.1220189E-02  1.2589260E-02   3.405962       7.815645    
  1.2589260E-02  1.4125382E-02   3.749192       7.508063    
  1.4125382E-02  1.5848938E-02   4.551602       7.289893    
  1.5848938E-02  1.7782802E-02   4.402256       7.827607    
  1.7782802E-02  1.9952632E-02   3.870222       8.032358    
  1.9952632E-02  2.2387221E-02   4.240604       7.902263    
  2.2387221E-02  2.5118876E-02   4.036444       7.632917    
  2.5118876E-02  2.8183842E-02   3.957327       7.818164    
  2.8183842E-02  3.1622794E-02   4.312712       7.365604    
  3.1622794E-02  3.5481352E-02   4.122608       7.242585    
  3.5481352E-02  3.9810736E-02   4.142436       6.986500    
  3.9810736E-02  4.4668384E-02   3.863424       6.380465    
  4.4668384E-02  5.0118748E-02   4.020105       6.408167    
  5.0118748E-02  5.6234159E-02   3.975964       5.910347    
  5.6234159E-02  6.3095763E-02   3.587688       5.976249    
  6.3095763E-02  7.0794620E-02   3.299584       5.704067    
  7.0794620E-02  7.9432867E-02   3.405252       5.378008    
  7.9432867E-02  8.9125134E-02   2.995245       5.571045    
  8.9125134E-02  0.1000001       2.688081       5.414693    
  0.1000001      0.1122019       2.438340       5.494526    
  0.1122019      0.1258926       2.327216       5.549392    
  0.1258926      0.1412538       2.055449       5.502505    
  0.1412538      0.1584894       1.728568       5.489634    
  0.1584894      0.1778280       1.483956       5.584342    
  0.1778280      0.1995264       1.282905       6.028171    
  0.1995264      0.2238722      0.9967635       6.267151    
  0.2238722      0.2511888      0.8487642       6.199631    
  0.2511888      0.2818385      0.5187694       7.416017    
  0.2818385      0.3162280      0.4998316       7.538120    
  0.3162280      0.3548136      0.4004275       7.786390    
  0.3548136      0.3981074      0.3504032       8.024941    
  0.3981074      0.4466839      0.2187555       9.242507    
  0.4466839      0.5011876      0.2452027       8.751307    
  0.5011876      0.5623417      0.1363324       10.45063    
  0.5623417      0.6309578      0.1022459       12.37071    
  0.6309578      0.7079462      8.9379899E-02   11.67966    
  0.7079462      0.7943288      6.7752771E-02   13.20455    
  0.7943288      0.8912516      3.9325707E-02   15.43284    
  0.8912516       1.000001      4.5593102E-02   13.65007    
   1.000001       1.122019      3.2629997E-02   15.48204    
   1.122019       1.258926      2.1601839E-02   18.17480    
   1.258926       1.412539      1.8626397E-02   18.09392    
   1.412539       1.584894      1.3940867E-02   19.89151    
   1.584894       1.778281      8.2020750E-03   24.98133    
   1.778281       1.995264      9.0087410E-03   22.95068    
   1.995264       2.238723      6.0972543E-03   26.10281    
   2.238723       2.511888      4.3003503E-03   29.49786    
   2.511888       2.818385      2.1611007E-03   40.01326    
   2.818385       3.162280      1.6373025E-03   42.11465    
   3.162280       3.548136      2.2980110E-03   35.06305    
   3.548136       3.981075      9.9270046E-04   49.61451    
   3.981075       4.466839      1.3578747E-03   40.50665    
   4.466839       5.011876      1.0847069E-03   41.59230    
   5.011876       5.623418      4.8923475E-04   57.82586    
   5.623418       6.309578      7.1283005E-04   45.45406    
   6.309578       7.079463      2.7189613E-04   70.22713    
   7.079463       7.943289      3.7725281E-04   57.30851    
   7.943289       8.912516      1.3433192E-04   83.65193    
   8.912516       10.00001      9.8948083E-05   99.00000    


 # Detector n:            4   phDG5     
 # N. of energy intervals         120
  9.9999997E-06  1.1220184E-05   2608.172       14.95633    
  1.1220184E-05  1.2589254E-05   2522.826       15.22902    
  1.2589254E-05  1.4125375E-05   1613.494       16.51163    
  1.4125375E-05  1.5848931E-05   2683.531       13.29801    
  1.5848931E-05  1.7782793E-05   3183.263       11.23834    
  1.7782793E-05  1.9952624E-05   2886.334       11.83770    
  1.9952624E-05  2.2387210E-05   3482.036       10.28826    
  2.2387210E-05  2.5118865E-05   3220.532       9.728355    
  2.5118865E-05  2.8183831E-05   4210.895       8.106506    
  2.8183831E-05  3.1622778E-05   4402.215       7.819889    
  3.1622778E-05  3.5481338E-05   5445.316       6.363637    
  3.5481338E-05  3.9810719E-05   6052.461       5.602268    
  3.9810719E-05  4.4668363E-05   8205.691       4.648998    
  4.4668363E-05  5.0118728E-05   12449.90       3.704861    
  5.0118728E-05  5.6234134E-05   21724.89       2.543301    
  5.6234134E-05  6.3095737E-05   35231.83       1.940835    
  6.3095737E-05  7.0794587E-05   53486.38       1.526145    
  7.0794587E-05  7.9432837E-05   77262.54       1.201515    
  7.9432837E-05  8.9125104E-05   101292.3       1.010427    
  8.9125104E-05  1.0000000E-04   129290.8      0.8513841    
  1.0000000E-04  1.1220186E-04   153973.7      0.7526283    
  1.1220186E-04  1.2589256E-04   171291.8      0.6540526    
  1.2589256E-04  1.4125377E-04   180745.6      0.6318266    
  1.4125377E-04  1.5848935E-04   180553.5      0.5961139    
  1.5848935E-04  1.7782798E-04   176084.0      0.5881959    
  1.7782798E-04  1.9952627E-04   164008.4      0.5707237    
  1.9952627E-04  2.2387214E-04   151345.8      0.5734798    
  2.2387214E-04  2.5118867E-04   135701.3      0.5605475    
  2.5118867E-04  2.8183835E-04   120069.4      0.5706350    
  2.8183835E-04  3.1622782E-04   106742.9      0.5520301    
  3.1622782E-04  3.5481344E-04   95329.48      0.5467073    
  3.5481344E-04  3.9810725E-04   87649.05      0.5398282    
  3.9810725E-04  4.4668367E-04   80381.67      0.5440610    
  4.4668367E-04  5.0118734E-04   82381.31      0.5006177    
  5.0118734E-04  5.6234142E-04   85372.41      0.5780627    
  5.6234142E-04  6.3095748E-04   30194.75      0.7576234    
  6.3095748E-04  7.0794590E-04   26488.25      0.7368554    
  7.0794590E-04  7.9432846E-04   24477.76      0.7121227    
  7.9432846E-04  8.9125114E-04   27907.02      0.6689793    
  8.9125114E-04  1.0000003E-03   25524.21      0.6222940    
  1.0000003E-03  1.1220188E-03   16278.88      0.7662612    
  1.1220188E-03  1.2589258E-03   15334.94      0.7250439    
  1.2589258E-03  1.4125380E-03   13913.92      0.7259225    
  1.4125380E-03  1.5848936E-03   11706.49      0.7244845    
  1.5848936E-03  1.7782800E-03   10700.93      0.7129861    
  1.7782800E-03  1.9952629E-03   10113.51      0.7123454    
  1.9952629E-03  2.2387218E-03   8411.138      0.7316834    
  2.2387218E-03  2.5118871E-03   7152.472      0.7678620    
  2.5118871E-03  2.8183837E-03   6205.221      0.7692569    
  2.8183837E-03  3.1622786E-03   5518.800      0.7735493    
  3.1622786E-03  3.5481353E-03   4769.602      0.7862882    
  3.5481353E-03  3.9810729E-03   4760.260      0.7356213    
  3.9810729E-03  4.4668377E-03   4038.859      0.7556158    
  4.4668377E-03  5.0118743E-03   3166.803      0.7912375    
  5.0118743E-03  5.6234146E-03   2658.812      0.8290102    
  5.6234146E-03  6.3095763E-03   2406.208      0.7939599    
  6.3095763E-03  7.0794607E-03   1956.515      0.8314015    
  7.0794607E-03  7.9432856E-03   1811.149      0.8191479    
  7.9432856E-03  8.9125130E-03   791.2648       1.173838    
  8.9125130E-03  1.0000004E-02   601.2266       1.297937    
  1.0000004E-02  1.1220189E-02   378.5490       1.545866    
  1.1220189E-02  1.2589260E-02   290.2029       1.704235    
  1.2589260E-02  1.4125382E-02   232.0781       1.792747    
  1.4125382E-02  1.5848938E-02   186.1778       1.866567    
  1.5848938E-02  1.7782802E-02   144.1605       2.051460    
  1.7782802E-02  1.9952632E-02   117.2228       2.053962    
  1.9952632E-02  2.2387221E-02   86.20860       2.276458    
  2.2387221E-02  2.5118876E-02   71.15929       2.267693    
  2.5118876E-02  2.8183842E-02   56.01035       2.519152    
  2.8183842E-02  3.1622794E-02   43.31844       2.758588    
  3.1622794E-02  3.5481352E-02   33.41430       2.834557    
  3.5481352E-02  3.9810736E-02   26.36603       3.103345    
  3.9810736E-02  4.4668384E-02   19.93091       3.232023    
  4.4668384E-02  5.0118748E-02   15.02788       3.554674    
  5.0118748E-02  5.6234159E-02   12.28596       3.784352    
  5.6234159E-02  6.3095763E-02   9.362710       4.143000    
  6.3095763E-02  7.0794620E-02   7.335497       4.433665    
  7.0794620E-02  7.9432867E-02   5.543594       4.659328    
  7.9432867E-02  8.9125134E-02   4.728582       4.791259    
  8.9125134E-02  0.1000001       3.625720       5.043232    
  0.1000001      0.1122019       2.811508       5.397971    
  0.1122019      0.1258926       2.134611       5.752516    
  0.1258926      0.1412538       1.630157       6.363812    
  0.1412538      0.1584894       1.251832       6.959729    
  0.1584894      0.1778280       1.020565       7.161889    
  0.1778280      0.1995264      0.7749449       7.464718    
  0.1995264      0.2238722      0.5789131       8.531582    
  0.2238722      0.2511888      0.3745081       9.752191    
  0.2511888      0.2818385      0.3043373       10.06900    
  0.2818385      0.3162280      0.2028408       11.44443    
  0.3162280      0.3548136      0.1753213       11.78358    
  0.3548136      0.3981074      0.1296936       13.87224    
  0.3981074      0.4466839      9.9045835E-02   13.99705    
  0.4466839      0.5011876      8.5612983E-02   14.36489    
  0.5011876      0.5623417      4.9882345E-02   17.76981    
  0.5623417      0.6309578      3.2006819E-02   20.46026    
  0.6309578      0.7079462      2.0331291E-02   23.09577    
  0.7079462      0.7943288      1.9373279E-02   24.04362    
  0.7943288      0.8912516      1.0451702E-02   29.79004    
  0.8912516       1.000001      1.4055785E-02   29.97574    
   1.000001       1.122019      4.8855306E-03   41.24501    
   1.122019       1.258926      6.4312788E-03   32.98843    
   1.258926       1.412539      4.9044029E-03   37.66695    
   1.412539       1.584894      1.4302989E-03   62.75343    
   1.584894       1.778281      1.1526300E-03   99.00000    
   1.778281       1.995264      1.9712413E-03   49.78009    
   1.995264       2.238723      1.5749021E-03   50.85049    
   2.238723       2.511888      6.6115631E-04   71.51684    
   2.511888       2.818385      2.8349744E-04   99.00000    
   2.818385       3.162280      6.2905945E-04   70.20386    
   3.162280       3.548136      5.5602123E-04   70.20301    
   3.548136       3.981075      2.4995650E-04   99.00000    
   3.981075       4.466839      6.6925579E-04   57.30820    
   4.466839       5.011876      3.9580953E-04   70.20304    
   5.011876       5.623418      1.7672066E-04   99.00000    
   5.623418       6.309578      4.0989110E-04   58.51164    
   6.309578       7.079463       0.000000       0.000000    
   7.079463       7.943289      1.2420717E-04   99.00000    
   7.943289       8.912516       0.000000       0.000000    
   8.912516       10.00001       0.000000       0.000000    


 # Detector n:            5   epDG5     
 # N. of energy intervals         120
  9.9999997E-06  1.1220184E-05   0.000000       0.000000    
  1.1220184E-05  1.2589254E-05   0.000000       0.000000    
  1.2589254E-05  1.4125375E-05   0.000000       0.000000    
  1.4125375E-05  1.5848931E-05   0.000000       0.000000    
  1.5848931E-05  1.7782793E-05  0.3269804       99.00000    
  1.7782793E-05  1.9952624E-05  0.7184008       57.78904    
  1.9952624E-05  2.2387210E-05   7.129341       19.41161    
  2.2387210E-05  2.5118865E-05   46.66967       7.219514    
  2.5118865E-05  2.8183831E-05   564.0568       1.929677    
  2.8183831E-05  3.1622778E-05   2802.542       1.085350    
  3.1622778E-05  3.5481338E-05   2605.449       1.109499    
  3.5481338E-05  3.9810719E-05   2603.917       1.140522    
  3.9810719E-05  4.4668363E-05   2649.579       1.176457    
  4.4668363E-05  5.0118728E-05   2689.469       1.154096    
  5.0118728E-05  5.6234134E-05   2695.631       1.175384    
  5.6234134E-05  6.3095737E-05   2654.759       1.243064    
  6.3095737E-05  7.0794587E-05   2798.385       1.235362    
  7.0794587E-05  7.9432837E-05   2738.394       1.260804    
  7.9432837E-05  8.9125104E-05   2836.769       1.309768    
  8.9125104E-05  1.0000000E-04   2806.746       1.262385    
  1.0000000E-04  1.1220186E-04   2795.108       1.340883    
  1.1220186E-04  1.2589256E-04   2761.657       1.370143    
  1.2589256E-04  1.4125377E-04   2567.969       1.429815    
  1.4125377E-04  1.5848935E-04   2534.255       1.450318    
  1.5848935E-04  1.7782798E-04   2334.581       1.449044    
  1.7782798E-04  1.9952627E-04   2241.421       1.424657    
  1.9952627E-04  2.2387214E-04   2091.815       1.463335    
  2.2387214E-04  2.5118867E-04   1948.118       1.608310    
  2.5118867E-04  2.8183835E-04   1783.069       1.637909    
  2.8183835E-04  3.1622782E-04   1637.573       1.746879    
  3.1622782E-04  3.5481344E-04   1520.773       1.833038    
  3.5481344E-04  3.9810725E-04   1449.955       1.875983    
  3.9810725E-04  4.4668367E-04   1348.271       1.922914    
  4.4668367E-04  5.0118734E-04   1300.830       1.974211    
  5.0118734E-04  5.6234142E-04   1237.762       2.018269    
  5.6234142E-04  6.3095748E-04   1146.396       2.075957    
  6.3095748E-04  7.0794590E-04   1106.285       2.105824    
  7.0794590E-04  7.9432846E-04   1003.352       2.152607    
  7.9432846E-04  8.9125114E-04   950.3965       2.211356    
  8.9125114E-04  1.0000003E-03   895.6475       2.210146    
  1.0000003E-03  1.1220188E-03   820.1879       2.394607    
  1.1220188E-03  1.2589258E-03   751.0812       2.489118    
  1.2589258E-03  1.4125380E-03   688.2952       2.474621    
  1.4125380E-03  1.5848936E-03   644.1280       2.469050    
  1.5848936E-03  1.7782800E-03   616.7715       2.494870    
  1.7782800E-03  1.9952629E-03   570.1229       2.589510    
  1.9952629E-03  2.2387218E-03   497.1217       2.728427    
  2.2387218E-03  2.5118871E-03   443.1573       2.697765    
  2.5118871E-03  2.8183837E-03   416.8339       2.772073    
  2.8183837E-03  3.1622786E-03   378.2769       2.906122    
  3.1622786E-03  3.5481353E-03   325.7034       2.827847    
  3.5481353E-03  3.9810729E-03   263.0817       2.933382    
  3.9810729E-03  4.4668377E-03   230.5230       3.068906    
  4.4668377E-03  5.0118743E-03   201.3018       3.058139    
  5.0118743E-03  5.6234146E-03   171.8590       3.114747    
  5.6234146E-03  6.3095763E-03   139.3604       3.205974    
  6.3095763E-03  7.0794607E-03   109.1198       3.407639    
  7.0794607E-03  7.9432856E-03   93.80910       3.584349    
  7.9432856E-03  8.9125130E-03   82.34961       3.616903    
  8.9125130E-03  1.0000004E-02   66.44768       3.785454    
  1.0000004E-02  1.1220189E-02   57.22283       3.777606    
  1.1220189E-02  1.2589260E-02   46.08053       3.923177    
  1.2589260E-02  1.4125382E-02   38.28414       4.188555    
  1.4125382E-02  1.5848938E-02   34.51204       4.347138    
  1.5848938E-02  1.7782802E-02   28.24732       4.351230    
  1.7782802E-02  1.9952632E-02   23.89683       4.483023    
  1.9952632E-02  2.2387221E-02   22.17159       4.467291    
  2.2387221E-02  2.5118876E-02   16.75358       4.552140    
  2.5118876E-02  2.8183842E-02   14.19755       4.964097    
  2.8183842E-02  3.1622794E-02   11.65619       5.096501    
  3.1622794E-02  3.5481352E-02   10.26937       5.089139    
  3.5481352E-02  3.9810736E-02   8.231980       5.493242    
  3.9810736E-02  4.4668384E-02   6.876309       5.248139    
  4.4668384E-02  5.0118748E-02   5.508679       5.925574    
  5.0118748E-02  5.6234159E-02   4.137531       6.688123    
  5.6234159E-02  6.3095763E-02   3.345974       7.274211    
  6.3095763E-02  7.0794620E-02   2.496979       7.142838    
  7.0794620E-02  7.9432867E-02   1.799242       8.000627    
  7.9432867E-02  8.9125134E-02   1.606845       8.065950    
  8.9125134E-02  0.1000001       1.359988       8.449006    
  0.1000001      0.1122019      0.9217229       9.270581    
  0.1122019      0.1258926      0.7775515       9.344293    
  0.1258926      0.1412538      0.6004081       9.784944    
  0.1412538      0.1584894      0.4808212       10.62038    
  0.1584894      0.1778280      0.3589725       12.16790    
  0.1778280      0.1995264      0.2828094       13.01585    
  0.1995264      0.2238722      0.1835845       14.91158    
  0.2238722      0.2511888      0.1038714       18.76180    
  0.2511888      0.2818385      0.1203645       16.94913    
  0.2818385      0.3162280      8.9095607E-02   18.92196    
  0.3162280      0.3548136      6.4771950E-02   20.27389    
  0.3548136      0.3981074      4.6548907E-02   21.51041    
  0.3981074      0.4466839      3.3448480E-02   24.86197    
  0.4466839      0.5011876      2.0341450E-02   28.22727    
  0.5011876      0.5623417      1.6007220E-02   31.25092    
  0.5623417      0.6309578      1.8037371E-02   29.23075    
  0.6309578      0.7079462      1.0395060E-02   35.07280    
  0.7079462      0.7943288      5.1720068E-03   49.63048    
  0.7943288      0.8912516      5.6633749E-03   44.20430    
  0.8912516       1.000001      2.6794344E-03   58.05206    
   1.000001       1.122019      2.8057662E-03   57.93030    
   1.122019       1.258926      3.0556653E-04   99.00000    
   1.258926       1.412539      1.8061848E-03   59.24482    
   1.412539       1.584894      6.2413368E-04   99.00000    
   1.584894       1.778281      1.1218510E-03   70.20789    
   1.778281       1.995264       0.000000       0.000000    
   1.995264       2.238723      1.2962397E-03   57.36473    
   2.238723       2.511888       0.000000       0.000000    
   2.511888       2.818385       0.000000       0.000000    
   2.818385       3.162280       0.000000       0.000000    
   3.162280       3.548136       0.000000       0.000000    
   3.548136       3.981075      7.0044119E-04   72.51227    
   3.981075       4.466839       0.000000       0.000000    
   4.466839       5.011876       0.000000       0.000000    
   5.011876       5.623418       0.000000       0.000000    
   5.623418       6.309578       0.000000       0.000000    
   6.309578       7.079463       0.000000       0.000000    
   7.079463       7.943289       0.000000       0.000000    
   7.943289       8.912516       0.000000       0.000000    
   8.912516       10.00001       0.000000       0.000000    


 # Detector n:            6   nsDG5     
 # N. of energy intervals         260
  1.0000100E-14  2.0000000E-13  4.1319814E+08   97.29401    
  2.0000000E-13  2.9297300E-13  2.6163826E+08   99.00000    
  2.9297300E-13  4.2916701E-13   0.000000       0.000000    
  4.2916701E-13  6.2867300E-13  8.2366976E+07   97.10831    
  6.2867300E-13  9.2092198E-13  7.7436986E+08   58.96930    
  9.2092198E-13  1.3490300E-12  1.1546450E+09   47.52902    
  1.3490300E-12  1.9761499E-12  2.4981320E+09   23.94543    
  1.9761499E-12  2.8947901E-12  3.6592858E+09   17.20076    
  2.8947901E-12  4.2404799E-12  4.9176801E+09   12.07044    
  4.2404799E-12  6.2117499E-12  7.1779236E+09   8.350700    
  6.2117499E-12  9.0993801E-12  1.0487507E+10   5.904799    
  9.0993801E-12  1.3329400E-11  1.4072047E+10   4.033787    
  1.3329400E-11  1.9525799E-11  1.8726914E+10   2.963718    
  1.9525799E-11  2.8602700E-11  2.2029036E+10   2.230238    
  2.8602700E-11  4.1899099E-11  2.3434607E+10   1.784759    
  4.1899099E-11  6.1376598E-11  2.0100854E+10   1.583269    
  6.1376598E-11  8.9908601E-11  1.3789201E+10   1.589819    
  8.9908601E-11  1.3170399E-10  7.0550221E+09   1.857431    
  1.3170399E-10  1.9292901E-10  3.6784916E+09   2.147930    
  1.9292901E-10  2.8261499E-10  2.2668273E+09   2.217089    
  2.8261499E-10  4.1399401E-10  1.5107621E+09   2.203978    
  4.1399401E-10  5.3157900E-10  1.2084289E+09   2.641212    
  5.3157900E-10  6.2506200E-10  1.1547489E+09   3.029588    
  6.2506200E-10  6.8256001E-10  9.9257203E+08   4.007595    
  6.8256001E-10  8.3368101E-10  8.9930285E+08   2.719973    
  8.3368101E-10  8.7642499E-10  8.1669414E+08   5.267939    
  8.7642499E-10  1.1253500E-09  7.5473530E+08   2.305628    
  1.1253500E-09  1.4449800E-09  6.2734547E+08   2.313045    
  1.4449800E-09  1.8553900E-09  5.3207670E+08   2.189783    
  1.8553900E-09  2.3823701E-09  4.5026454E+08   1.980280    
  2.3823701E-09  3.0590199E-09  3.6668861E+08   1.987064    
  3.0590199E-09  3.9278598E-09  3.1101693E+08   1.936894    
  3.9278598E-09  5.0434799E-09  2.5341022E+08   1.853712    
  5.0434799E-09  6.4759500E-09  2.0784253E+08   1.823876    
  6.4759500E-09  8.3152898E-09  1.7225464E+08   1.805189    
  8.3152898E-09  1.0677000E-08  1.3783843E+08   1.754123    
  1.0677000E-08  1.3709600E-08  1.1216351E+08   1.715601    
  1.3709600E-08  1.7603501E-08  9.1610072E+07   1.678137    
  1.7603501E-08  2.2603301E-08  7.4018072E+07   1.639496    
  2.2603301E-08  2.9023200E-08  5.7773204E+07   1.638281    
  2.9023200E-08  3.7266499E-08  4.5810096E+07   1.630513    
  3.7266499E-08  4.7851199E-08  3.8281156E+07   1.535957    
  4.7851199E-08  6.1442101E-08  3.1142692E+07   1.513588    
  6.1442101E-08  7.8893301E-08  2.4205664E+07   1.546865    
  7.8893301E-08  1.0130100E-07  1.8776140E+07   1.533929    
  1.0130100E-07  1.3007300E-07  1.4609183E+07   1.474932    
  1.3007300E-07  1.6701701E-07  1.1967170E+07   1.483862    
  1.6701701E-07  2.1445400E-07   9479918.       1.476588    
  2.1445400E-07  2.7536399E-07   7289810.       1.512844    
  2.7536399E-07  3.5357499E-07   5403649.       1.585867    
  3.5357499E-07  4.5399901E-07   4121701.       1.521622    
  4.5399901E-07  5.8294700E-07   3636815.       1.466652    
  5.8294700E-07  7.4851800E-07   2840481.       1.459387    
  7.4851800E-07  9.6111603E-07   2201104.       1.475787    
  9.6111603E-07  1.2341000E-06   1712774.       1.420299    
  1.2341000E-06  1.3638900E-06   1663057.       2.148455    
  1.3638900E-06  1.5073300E-06   1509072.       2.133883    
  1.5073300E-06  1.5846100E-06   1438911.       2.962322    
  1.5846100E-06  1.6658601E-06   1341199.       2.977443    
  1.6658601E-06  1.8410600E-06   1230071.       2.122785    
  1.8410600E-06  2.0346799E-06   1157466.       2.081578    
  2.0346799E-06  2.2486699E-06   998700.1       2.090998    
  2.2486699E-06  2.4851699E-06   808712.9       2.220326    
  2.4851699E-06  2.6125899E-06   777526.3       3.183356    
  2.6125899E-06  2.7465401E-06   758819.3       3.036132    
  2.7465401E-06  2.8634900E-06   654154.8       3.481276    
  2.8634900E-06  3.0353899E-06   652599.3       2.815472    
  3.0353899E-06  3.3546301E-06   670162.2       2.151877    
  3.3546301E-06  3.7074401E-06   676926.0       2.004005    
  3.7074401E-06  4.0973500E-06   579521.0       2.034569    
  4.0973500E-06  4.3074201E-06   562073.0       2.857630    
  4.3074201E-06  4.5282700E-06   553819.0       2.715948    
  4.5282700E-06  5.0045101E-06   516753.6       2.002923    
  5.0045101E-06  5.5308401E-06   505940.7       1.876970    
  5.5308401E-06  6.2672698E-06   406373.8       1.770316    
  6.2672698E-06  7.1017398E-06   321860.1       1.904846    
  7.1017398E-06  8.0473301E-06   226452.7       2.241872    
  8.0473301E-06  9.1188203E-06   188733.6       2.192574    
  9.1188203E-06  1.0333000E-05   222292.4       1.892622    
  1.0333000E-05  1.1708800E-05   216358.4       1.800142    
  1.1708800E-05  1.3267800E-05   213373.8       1.657717    
  1.3267800E-05  1.5034400E-05   202032.1       1.673171    
  1.5034400E-05  1.7036200E-05   185411.6       1.594525    
  1.7036200E-05  1.9304500E-05   193596.5       1.483633    
  1.9304500E-05  2.1334799E-05   184564.1       1.600072    
  2.1334799E-05  2.1874899E-05   188656.4       3.008384    
  2.1874899E-05  2.3578599E-05   222182.9       1.605712    
  2.3578599E-05  2.4175501E-05   271111.7       2.435056    
  2.4175501E-05  2.4787500E-05   417388.1       1.945608    
  2.4787500E-05  2.6058400E-05   342400.1       1.484612    
  2.6058400E-05  2.8087899E-05   66156.72       2.748004    
  2.8087899E-05  3.1827800E-05   35080.14       2.724593    
  3.1827800E-05  3.4306700E-05   62304.18       2.471337    
  3.4306700E-05  3.5175199E-05   69827.59       3.987458    
  3.5175199E-05  3.6065601E-05   68328.78       3.874802    
  3.6065601E-05  4.0867701E-05   68817.56       1.637280    
  4.0867701E-05  4.6309200E-05   68588.75       1.594979    
  4.6309200E-05  5.2475199E-05   70912.27       1.470433    
  5.2475199E-05  5.6562199E-05   50678.07       2.176586    
  5.6562199E-05  5.9462200E-05   59010.10       2.420609    
  5.9462200E-05  6.2510902E-05   59932.07       2.289273    
  6.2510902E-05  6.7379500E-05   62265.07       1.755797    
  6.7379500E-05  7.6350902E-05   62376.12       1.263464    
  7.6350902E-05  8.6516899E-05   50906.54       1.427504    
  8.6516899E-05  9.8036500E-05   38244.43       1.521037    
  9.8036500E-05  1.1109000E-04   41066.06       1.380404    
  1.1109000E-04  1.1678600E-04   48754.64       1.825487    
  1.1678600E-04  1.2277300E-04   51413.86       1.779713    
  1.2277300E-04  1.2906799E-04   54957.17       1.653840    
  1.2906799E-04  1.3568600E-04   34788.91       2.015101    
  1.3568600E-04  1.4264201E-04   31218.75       2.097659    
  1.4264201E-04  1.4995600E-04   24419.50       2.281794    
  1.4995600E-04  1.5764400E-04   35068.52       1.895026    
  1.5764400E-04  1.6163501E-04   43605.98       2.293650    
  1.6163501E-04  1.6572700E-04   46746.74       2.245551    
  1.6572700E-04  1.6992200E-04   33196.54       2.510898    
  1.6992200E-04  1.7422400E-04   23858.61       3.067112    
  1.7422400E-04  1.8315599E-04   40954.49       1.565678    
  1.8315599E-04  1.9254700E-04   21029.25       2.191273    
  1.9254700E-04  2.0241900E-04   21481.92       2.135786    
  2.0241900E-04  2.1279699E-04   26812.95       1.823340    
  2.1279699E-04  2.2370800E-04   24794.68       1.888299    
  2.2370800E-04  2.3517800E-04   25762.63       1.769108    
  2.3517800E-04  2.4723500E-04   29506.55       1.649296    
  2.4723500E-04  2.5991100E-04   25725.39       1.754290    
  2.5991100E-04  2.7323700E-04   31729.73       1.487183    
  2.7323700E-04  2.8015400E-04   19235.70       2.670309    
  2.8015400E-04  2.8724599E-04   20876.03       2.529830    
  2.8724599E-04  2.9451799E-04   23844.96       2.387279    
  2.9451799E-04  3.0197401E-04   36445.50       1.807375    
  3.0197401E-04  3.0961799E-04   44633.31       1.646887    
  3.0961799E-04  3.1745600E-04   35974.50       1.844470    
  3.1745600E-04  3.3373301E-04   16290.64       1.904504    
  3.3373301E-04  3.5084400E-04   24298.51       1.492557    
  3.5084400E-04  3.6883200E-04   18859.48       1.670445    
  3.6883200E-04  3.8774201E-04   17739.11       1.688218    
  3.8774201E-04  4.0762199E-04   12324.88       1.949848    
  4.0762199E-04  4.2852099E-04   11536.81       1.954682    
  4.2852099E-04  4.5049199E-04   12306.41       1.883489    
  4.5049199E-04  4.7358900E-04   16592.53       1.563884    
  4.7358900E-04  4.9787102E-04   17370.71       1.483971    
  4.9787102E-04  5.1047403E-04   18436.75       2.108052    
  5.1047403E-04  5.2339700E-04   17596.72       2.080353    
  5.2339700E-04  5.3664698E-04   19642.23       1.923782    
  5.3664698E-04  5.5023201E-04   18472.11       1.910501    
  5.5023201E-04  5.7844300E-04   18837.79       1.310045    
  5.7844300E-04  6.0810102E-04   20593.10       1.263993    
  6.0810102E-04  6.3927902E-04   21501.09       1.191391    
  6.3927902E-04  6.7205500E-04   18656.46       1.245653    
  6.7205500E-04  7.0651202E-04   15843.04       1.354990    
  7.0651202E-04  7.4273598E-04   15407.14       1.316544    
  7.4273598E-04  7.8081700E-04   13887.59       1.353207    
  7.8081700E-04  8.2085002E-04   13083.36       1.337381    
  8.2085002E-04  8.6293602E-04   11966.74       1.353017    
  8.6293602E-04  9.0717903E-04   10670.11       1.409163    
  9.0717903E-04  9.5369201E-04   9785.021       1.460296    
  9.5369201E-04  9.6163998E-04   10702.30       3.337904    
  9.6163998E-04  9.7783399E-04   7089.130       2.910833    
  9.7783399E-04  1.0025901E-03   7244.875       2.290991    
  1.0025901E-03  1.0539900E-03   7547.235       1.569564    
  1.0539900E-03  1.1080300E-03   8339.887       1.404361    
  1.1080300E-03  1.1648400E-03   9755.990       1.308455    
  1.1648400E-03  1.1943300E-03   10219.68       1.783203    
  1.1943300E-03  1.2245600E-03   9755.442       1.811950    
  1.2245600E-03  1.2873500E-03   8367.007       1.334174    
  1.2873500E-03  1.3533500E-03   7090.988       1.442340    
  1.3533500E-03  1.4227401E-03   8134.899       1.300330    
  1.4227401E-03  1.4956900E-03   8188.305       1.291619    
  1.4956900E-03  1.5335500E-03   7886.323       1.752944    
  1.5335500E-03  1.5723699E-03   6674.005       1.915709    
  1.5723699E-03  1.6121800E-03   6569.277       1.908811    
  1.6121800E-03  1.6529900E-03   5879.098       1.910855    
  1.6529900E-03  1.7377400E-03   6693.792       1.312137    
  1.7377400E-03  1.8268300E-03   6865.984       1.270983    
  1.8268300E-03  1.8730800E-03   5062.902       2.045665    
  1.8730800E-03  1.9205000E-03   5066.674       2.030240    
  1.9205000E-03  1.9691200E-03   4889.320       1.982517    
  1.9691200E-03  2.0189700E-03   5564.189       1.862394    
  2.0189700E-03  2.1224800E-03   5481.060       1.266801    
  2.1224800E-03  2.2313001E-03   5874.469       1.193503    
  2.2313001E-03  2.2688799E-03   6791.494       1.885266    
  2.2688799E-03  2.3068599E-03   6279.354       1.964868    
  2.3068599E-03  2.3457000E-03   7771.215       1.785575    
  2.3457000E-03  2.3652499E-03   8582.543       2.379304    
  2.3652499E-03  2.3852000E-03   7551.569       2.639479    
  2.3852000E-03  2.4251300E-03   6340.933       1.968527    
  2.4251300E-03  2.4659701E-03   5570.310       2.075124    
  2.4659701E-03  2.5923999E-03   4841.999       1.263324    
  2.5923999E-03  2.7253199E-03   4516.635       1.288340    
  2.7253199E-03  2.8650500E-03   3893.213       1.304986    
  2.8650500E-03  3.0119400E-03   3277.119       1.422561    
  3.0119400E-03  3.0881900E-03   3378.189       1.917860    
  3.0881900E-03  3.1663701E-03   2966.295       2.058186    
  3.1663701E-03  3.2465300E-03   2582.284       2.049521    
  3.2465300E-03  3.3287101E-03   2285.002       2.266142    
  3.3287101E-03  3.4993801E-03   2000.141       1.696373    
  3.4993801E-03  3.6787901E-03   1938.612       1.666371    
  3.6787901E-03  3.8674099E-03   1810.773       1.679727    
  3.8674099E-03  4.0656999E-03   1957.835       1.553006    
  4.0656999E-03  4.2741499E-03   1902.412       1.492974    
  4.2741499E-03  4.4932901E-03   1537.441       1.711146    
  4.4932901E-03  4.6070400E-03   1585.494       2.350331    
  4.6070400E-03  4.7236700E-03   1656.720       2.254587    
  4.7236700E-03  4.8432499E-03   1708.937       2.143945    
  4.8432499E-03  4.9658502E-03   1460.123       2.294956    
  4.9658502E-03  5.2204598E-03   1429.261       1.641564    
  5.2204598E-03  5.4881200E-03   1377.905       1.564321    
  5.4881200E-03  5.7695000E-03   1065.846       1.753937    
  5.7695000E-03  5.9155500E-03   1154.098       2.319691    
  5.9155500E-03  6.0653100E-03   1052.735       2.472474    
  6.0653100E-03  6.2188501E-03   1105.407       2.310438    
  6.2188501E-03  6.3762800E-03   1034.645       2.474049    
  6.3762800E-03  6.5377001E-03   1020.031       2.408964    
  6.5377001E-03  6.5923799E-03   1121.074       3.976488    
  6.5923799E-03  6.6475999E-03   984.4445       4.217418    
  6.6475999E-03  6.7031998E-03   916.6591       4.429205    
  6.7031998E-03  6.8728901E-03   886.1960       2.449072    
  6.8728901E-03  7.0468802E-03   902.7250       2.422947    
  7.0468802E-03  7.2252699E-03   825.4540       2.573322    
  7.2252699E-03  7.4081798E-03   694.5146       2.689793    
  7.4081798E-03  7.5957198E-03   726.0506       2.705884    
  7.5957198E-03  7.7880099E-03   643.1920       2.749621    
  7.7880099E-03  7.9851598E-03   662.1183       2.688402    
  7.9851598E-03  8.1873098E-03   731.5834       2.555128    
  8.1873098E-03  8.3945701E-03   620.8151       2.724441    
  8.3945701E-03  8.6070802E-03   615.2814       2.683790    
  8.6070802E-03  8.8249696E-03   610.0632       2.686753    
  8.8249696E-03  9.0483697E-03   603.1122       2.581692    
  9.0483697E-03  9.2774397E-03   589.3550       2.730654    
  9.2774397E-03  9.5122904E-03   602.0767       2.540405    
  9.5122904E-03  9.7530996E-03   548.5602       2.620665    
  9.7530996E-03  9.9999998E-03   520.8488       2.736000    
  9.9999998E-03  1.0253200E-02   510.4119       2.730250    
  1.0253200E-02  1.0512700E-02   527.4282       2.662522    
  1.0512700E-02  1.0778800E-02   517.6224       2.588441    
  1.0778800E-02  1.1051700E-02   496.3762       2.650806    
  1.1051700E-02  1.1331500E-02   441.2823       2.773390    
  1.1331500E-02  1.1618300E-02   431.5482       2.720692    
  1.1618300E-02  1.1912500E-02   412.5735       2.754015    
  1.1912500E-02  1.2214000E-02   431.1014       2.753549    
  1.2214000E-02  1.2523200E-02   440.9550       2.632773    
  1.2523200E-02  1.2840200E-02   429.9752       2.627959    
  1.2840200E-02  1.3165300E-02   427.0453       2.574665    
  1.3165300E-02  1.3498600E-02   413.4939       2.623397    
  1.3498600E-02  1.3840300E-02   431.6595       2.518262    
  1.3840300E-02  1.4190700E-02   421.1665       2.542896    
  1.4190700E-02  1.4549900E-02   429.2902       2.499633    
  1.4549900E-02  1.4918300E-02   391.3166       2.519399    
  1.4918300E-02  1.5295900E-02   372.0116       2.556329    
  1.5295900E-02  1.5683100E-02   387.2016       2.564863    
  1.5683100E-02  1.6080100E-02   390.5742       2.561739    
  1.6080100E-02  1.6487200E-02   409.2449       2.335943    
  1.6487200E-02  1.6904600E-02   403.8521       2.305423    
  1.6904600E-02  1.7332500E-02   402.9273       2.311285    
  1.7332500E-02  1.7771300E-02   387.9647       2.352964    
  1.7771300E-02  1.8221200E-02   366.1025       2.383552    
  1.8221200E-02  1.8682500E-02   375.5532       2.428770    
  1.8682500E-02  1.9155400E-02   338.2852       2.457727    
  1.9155400E-02  1.9640300E-02   329.2937       2.483519    
  1.9640300E-02  2.0000000E-02   350.2819       2.748785    


 # Detector n:            7   nfDG5     
 # N. of energy intervals         120
  2.0000000E-02  2.1063058E-02   338.7697       1.639430    
  2.1063058E-02  2.2182621E-02   333.0632       1.613998    
  2.2182621E-02  2.3361692E-02   325.0540       1.567584    
  2.3361692E-02  2.4603436E-02   319.0410       1.521480    
  2.4603436E-02  2.5911180E-02   308.9922       1.486417    
  2.5911180E-02  2.7288437E-02   318.7597       1.422879    
  2.7288437E-02  2.8738894E-02   310.0582       1.488638    
  2.8738894E-02  3.0266454E-02   307.7166       1.440160    
  3.0266454E-02  3.1875204E-02   305.8086       1.376491    
  3.1875204E-02  3.3569463E-02   302.3596       1.326571    
  3.3569463E-02  3.5353780E-02   302.1437       1.313056    
  3.5353780E-02  3.7232935E-02   297.1047       1.296916    
  3.7232935E-02  3.9211977E-02   292.6762       1.252143    
  3.9211977E-02  4.1296210E-02   294.5621       1.204381    
  4.1296210E-02  4.3491218E-02   290.5557       1.219459    
  4.3491218E-02  4.5802910E-02   285.0217       1.185456    
  4.5802910E-02  4.8237469E-02   284.6822       1.178861    
  4.8237469E-02  5.0801434E-02   280.9345       1.140098    
  5.0801434E-02  5.3501677E-02   279.0304       1.111622    
  5.3501677E-02  5.6345452E-02   275.8095       1.097574    
  5.6345452E-02  5.9340376E-02   263.1168       1.098077    
  5.9340376E-02  6.2494490E-02   252.8952       1.090705    
  6.2494490E-02  6.5816253E-02   249.1014       1.037410    
  6.5816253E-02  6.9314592E-02   240.9611       1.053098    
  6.9314592E-02  7.2998859E-02   222.4506       1.071890    
  7.2998859E-02  7.6878957E-02   223.3189       1.013596    
  7.6878957E-02  8.0965310E-02   212.4079       1.052664    
  8.0965310E-02  8.5268848E-02   198.3948       1.040068    
  8.5268848E-02  8.9801140E-02   181.9880       1.086246    
  8.9801140E-02  9.4574332E-02   177.1700       1.024067    
  9.4574332E-02  9.9601232E-02   168.7928       1.075567    
  9.9601232E-02  0.1048953       152.9862       1.074597    
  0.1048953      0.1104708       143.1687       1.107036    
  0.1104708      0.1163427       132.2454       1.133056    
  0.1163427      0.1225266       120.8410       1.088996    
  0.1225266      0.1290393       111.8804       1.159973    
  0.1290393      0.1358981       105.5368       1.131556    
  0.1358981      0.1431215       93.54836       1.214115    
  0.1431215      0.1507288       86.30312       1.234491    
  0.1507288      0.1587405       80.04681       1.273186    
  0.1587405      0.1671780       69.52494       1.292793    
  0.1671780      0.1760640       61.54376       1.319358    
  0.1760640      0.1854223       55.67487       1.391011    
  0.1854223      0.1952781       47.63443       1.453751    
  0.1952781      0.2056577       41.33893       1.496336    
  0.2056577      0.2165890       36.07936       1.575693    
  0.2165890      0.2281013       30.58980       1.623327    
  0.2281013      0.2402256       25.83881       1.708176    
  0.2402256      0.2529943       22.36056       1.805478    
  0.2529943      0.2664417       18.43066       1.891845    
  0.2664417      0.2806039       14.80302       2.151945    
  0.2806039      0.2955188       12.33424       2.226437    
  0.2955188      0.3112265       10.62434       2.356538    
  0.3112265      0.3277690       8.675478       2.479761    
  0.3277690      0.3451909       7.157458       2.741290    
  0.3451909      0.3635389       5.625607       2.974886    
  0.3635389      0.3828620       4.830809       3.060913    
  0.3828620      0.4032122       3.786170       3.531928    
  0.4032122      0.4246442       3.131432       3.904440    
  0.4246442      0.4472153       2.741948       3.794640    
  0.4472153      0.4709860       2.140717       4.178350    
  0.4709860      0.4960204       1.623856       4.740108    
  0.4960204      0.5223852       1.496667       4.866930    
  0.5223852      0.5501516       1.234567       5.428866    
  0.5501516      0.5793938      0.9752607       5.571939    
  0.5793938      0.6101903      0.8106667       5.857086    
  0.6101903      0.6426237      0.7318985       6.407111    
  0.6426237      0.6767811      0.5985004       6.732659    
  0.6767811      0.7127540      0.5218177       7.072296    
  0.7127540      0.7506390      0.4314151       8.037447    
  0.7506390      0.7905375      0.3713061       8.007322    
  0.7905375      0.8325570      0.2917393       8.837112    
  0.8325570      0.8768098      0.2349036       9.261107    
  0.8768098      0.9234148      0.1476836       11.47814    
  0.9234148      0.9724970      0.1211118       12.37393    
  0.9724970       1.024188      0.1292103       11.78214    
   1.024188       1.078627      8.4363684E-02   14.10865    
   1.078627       1.135959      8.2840361E-02   14.07225    
   1.135959       1.196338      6.4428203E-02   15.60078    
   1.196338       1.259927      5.5019379E-02   16.39274    
   1.259927       1.326896      3.3395275E-02   19.74785    
   1.326896       1.397425      2.8433980E-02   21.70680    
   1.397425       1.471702      2.7128398E-02   21.03563    
   1.471702       1.549927      2.6963737E-02   21.33492    
   1.549927       1.632310      2.8840523E-02   20.66147    
   1.632310       1.719072      1.7924841E-02   24.23890    
   1.719072       1.810446      2.0924255E-02   23.29082    
   1.810446       1.906677      1.1001603E-02   28.94353    
   1.906677       2.008022      1.2196375E-02   28.76530    
   2.008022       2.114754      6.7939400E-03   36.63669    
   2.114754       2.227160      7.5494740E-03   34.76596    
   2.227160       2.345540      4.8061009E-03   38.11425    
   2.345540       2.470212      6.4963126E-03   33.72539    
   2.470212       2.601511      4.0594526E-03   44.67841    
   2.601511       2.739789      5.0635613E-03   40.66440    
   2.739789       2.885417      4.5914445E-03   47.05028    
   2.885417       3.038786      2.1092657E-03   57.30518    
   3.038786       3.200306      4.5113442E-03   37.25700    
   3.200306       3.370412      1.2910853E-03   70.21019    
   3.370412       3.549559      1.9841061E-03   50.96661    
   3.549559       3.738229      1.1440662E-03   70.20354    
   3.738229       3.936927      2.2021283E-03   49.62368    
   3.936927       4.146185      2.0866555E-03   49.61885    
   4.146185       4.366568      9.7673154E-04   70.20300    
   4.366568       4.598663      4.2424237E-04   99.00000    
   4.598663       4.843096      1.3357647E-03   57.30830    
   4.843096       5.100521      1.2559885E-03   57.30523    
   5.100521       5.371628      8.1052684E-04   70.20636    
   5.371628       5.657146      7.5392035E-04   70.20299    
   5.657146       5.957840       0.000000       0.000000    
   5.957840       6.274517      3.4299842E-04   99.00000    
   6.274517       6.608026      6.4424233E-04   70.20309    
   6.608026       6.959262      6.1326585E-04   70.20300    
   6.959262       7.329167       0.000000       0.000000    
   7.329167       7.718733       0.000000       0.000000    
   7.718733       8.129007       0.000000       0.000000    
   8.129007       8.561088       0.000000       0.000000    
   8.561088       9.016134       0.000000       0.000000    
   9.016134       9.495368      2.2421652E-04   99.00000    
   9.495368       10.00008      2.1287148E-04   99.00000    
